{
  "bookmarks": {
    "url": "chrome://browser/content/ext-bookmarks.js",
    "schema": "chrome://browser/content/schemas/bookmarks.json",
    "scopes": ["addon_parent"],
    "paths": [
      ["bookmarks"]
    ]
  },
  "browserAction": {
    "url": "chrome://browser/content/ext-browserAction.js",
    "schema": "chrome://browser/content/schemas/browser_action.json",
    "scopes": ["addon_parent"],
    "manifest": ["browser_action"],
    "paths": [
      ["browserAction"]
    ]
  },
  "browsingData": {
    "url": "chrome://browser/content/ext-browsingData.js",
    "schema": "chrome://browser/content/schemas/browsing_data.json",
    "scopes": ["addon_parent"],
    "paths": [
      ["browsingData"]
    ]
  },
  "chrome_settings_overrides": {
    "url": "chrome://browser/content/ext-chrome-settings-overrides.js",
    "scopes": [],
    "schema": "chrome://browser/content/schemas/chrome_settings_overrides.json",
    "manifest": ["chrome_settings_overrides"]
  },
  "commands": {
    "url": "chrome://browser/content/ext-commands.js",
    "schema": "chrome://browser/content/schemas/commands.json",
    "scopes": ["addon_parent"],
    "manifest": ["commands"],
    "paths": [
      ["commands"]
    ]
  },
  "devtools": {
    "url": "chrome://browser/content/ext-devtools.js",
    "schema": "chrome://browser/content/schemas/devtools.json",
    "scopes": ["devtools_parent"],
    "manifest": ["devtools_page"],
    "paths": [
      ["devtools"]
    ]
  },
  "devtools_inspectedWindow": {
    "url": "chrome://browser/content/ext-devtools-inspectedWindow.js",
    "schema": "chrome://browser/content/schemas/devtools_inspected_window.json",
    "scopes": ["devtools_parent"],
    "paths": [
      ["devtools", "inspectedWindow"]
    ]
  },
  "devtools_network": {
    "url": "chrome://browser/content/ext-devtools-network.js",
    "schema": "chrome://browser/content/schemas/devtools_network.json",
    "scopes": ["devtools_parent"],
    "paths": [
      ["devtools", "network"]
    ]
  },
  "devtools_panels": {
    "url": "chrome://browser/content/ext-devtools-panels.js",
    "schema": "chrome://browser/content/schemas/devtools_panels.json",
    "scopes": ["devtools_parent"],
    "paths": [
      ["devtools", "panels"]
    ]
  },
  "find": {
    "url": "chrome://browser/content/ext-find.js",
    "schema": "chrome://browser/content/schemas/find.json",
    "scopes": ["addon_parent"],
    "paths": [
      ["find"]
    ]
  },
  "history": {
    "url": "chrome://browser/content/ext-history.js",
    "schema": "chrome://browser/content/schemas/history.json",
    "scopes": ["addon_parent"],
    "paths": [
      ["history"]
    ]
  },
  "identity": {
    "url": "chrome://extensions/content/ext-identity.js",
    "schema": "chrome://extensions/content/schemas/identity.json",
    "scopes": ["addon_parent"],
    "paths": [
       ["identity"]
    ]
  },
  "menusInternal": {
    "url": "chrome://browser/content/ext-menus.js",
    "schema": "chrome://browser/content/schemas/menus.json",
    "scopes": ["addon_parent"],
    "paths": [
      ["menusInternal"]
    ]
  },
  "omnibox": {
    "url": "chrome://browser/content/ext-omnibox.js",
    "schema": "chrome://browser/content/schemas/omnibox.json",
    "scopes": ["addon_parent"],
    "manifest": ["omnibox"],
    "paths": [
      ["omnibox"]
    ]
  },
  "pageAction": {
    "url": "chrome://browser/content/ext-pageAction.js",
    "schema": "chrome://browser/content/schemas/page_action.json",
    "scopes": ["addon_parent"],
    "manifest": ["page_action"],
    "paths": [
      ["pageAction"]
    ]
  },
  "geckoProfiler": {
    "url": "chrome://browser/content/ext-geckoProfiler.js",
    "schema": "chrome://browser/content/schemas/geckoProfiler.json",
    "scopes": ["addon_parent"],
    "paths": [
      ["geckoProfiler"]
    ]
  },
  "sessions": {
    "url": "chrome://browser/content/ext-sessions.js",
    "schema": "chrome://browser/content/schemas/sessions.json",
    "scopes": ["addon_parent"],
    "paths": [
      ["sessions"]
    ]
  },
  "sidebarAction": {
    "url": "chrome://browser/content/ext-sidebarAction.js",
    "schema": "chrome://browser/content/schemas/sidebar_action.json",
    "scopes": ["addon_parent"],
    "manifest": ["sidebar_action"],
    "paths": [
      ["sidebarAction"]
    ]
  },
  "tabs": {
    "url": "chrome://browser/content/ext-tabs.js",
    "schema": "chrome://browser/content/schemas/tabs.json",
    "scopes": ["addon_parent"],
    "paths": [
      ["tabs"]
    ]
  },
  "urlOverrides": {
    "url": "chrome://browser/content/ext-url-overrides.js",
    "schema": "chrome://browser/content/schemas/url_overrides.json",
    "scopes": ["addon_parent"],
    "manifest": ["chrome_url_overrides"],
    "paths": [
      ["urlOverrides"]
    ]
  },
  "windows": {
    "url": "chrome://browser/content/ext-windows.js",
    "schema": "chrome://browser/content/schemas/windows.json",
    "scopes": ["addon_parent"],
    "paths": [
      ["windows"]
    ]
  }
}
