<!-- This Source Code Form is subject to the terms of the Mozilla Public
   - License, v. 2.0. If a copy of the MPL was not distributed with this
   - file, You can obtain one at http://mozilla.org/MPL/2.0/. -->
<svg xmlns="http://www.w3.org/2000/svg" width="1260" height="36" fill="context-fill">
  <svg>
    <path d="M9.714 17.335l-4.948 -5.052a1 1 0 1 0 -1.429 1.4l4.25 4.337 -4.338 4.248a1 1 0 0 0 -0.04 1.414 1 1 0 0 0 1.414 0.04l0.025 -0.025 5.052 -4.948a1 1 0 0 0 0.014 -1.414zm6 0.062l-4.948 -5.051a1 1 0 1 0 -1.429 1.4l4.249 4.336 -4.338 4.248a1 1 0 0 0 -0.04 1.414 1 1 0 0 0 1.415 0.04l0.025 -0.025 5.051 -4.948a1 1 0 0 0 0.015 -1.414z"/>
  </svg>
  <svg x="18">
    <path d="M9.735 17.456l-4.796 -5.196a1 1 0 1 0 -1.47 1.356l4.118 4.461 -4.461 4.118a1 1 0 0 0 -0.082 1.412 1 1 0 0 0 1.412 0.081c0.01 -0.007 0.017 -0.016 0.026 -0.024l5.196 -4.795a1 1 0 0 0 0.057 -1.413zm5.995 0.24l-4.796 -5.196a1 1 0 1 0 -1.47 1.356l4.118 4.462 -4.461 4.117a1 1 0 0 0 -0.082 1.412 1 1 0 0 0 1.412 0.082l0.026 -0.024 5.196 -4.796a1 1 0 0 0 0.057 -1.413z"/>
  </svg>
  <svg x="36">
    <path d="M9.766 17.648l-4.546 -5.416a1 1 0 1 0 -1.532 1.286l3.903 4.65 -4.65 3.903a1 1 0 0 0 -0.148 1.407 1 1 0 0 0 1.407 0.148c0.01 -0.007 0.018 -0.016 0.027 -0.023l5.416 -4.546a1 1 0 0 0 0.123 -1.409zm5.977 0.522l-4.546 -5.416a1 1 0 1 0 -1.532 1.286l3.904 4.65 -4.65 3.903a1 1 0 0 0 -0.149 1.407 1 1 0 0 0 1.407 0.148c0.01 -0.007 0.018 -0.016 0.027 -0.023l5.416 -4.546a1 1 0 0 0 0.123 -1.409z"/>
  </svg>
  <svg x="54">
    <path d="M9.804 17.905l-4.2 -5.688a1 1 0 1 0 -1.609 1.188l3.607 4.884 -4.884 3.606a1 1 0 0 0 -0.236 1.395 1 1 0 0 0 1.395 0.235l0.028 -0.021 5.689 -4.2a1 1 0 0 0 0.21 -1.399zm5.934 0.894l-4.2 -5.689a1 1 0 1 0 -1.609 1.188l3.606 4.884 -4.884 3.606a1 1 0 0 0 -0.235 1.395 1 1 0 0 0 1.394 0.235l0.029 -0.021 5.688 -4.2a1 1 0 0 0 0.21 -1.398z"/>
  </svg>
  <svg x="72">
    <path d="M9.847 18.22l-3.76 -5.989a1 1 0 1 0 -1.694 1.063l3.229 5.142 -5.143 3.228a1 1 0 0 0 -0.34 1.373 1 1 0 0 0 1.373 0.34c0.011 -0.006 0.02 -0.013 0.03 -0.02l5.99 -3.758a1 1 0 0 0 0.315 -1.379zm5.849 1.338l-3.76 -5.989a1 1 0 1 0 -1.694 1.063l3.229 5.142 -5.143 3.228a1 1 0 0 0 -0.34 1.373 1 1 0 0 0 1.373 0.34l0.03 -0.02 5.99 -3.758a1 1 0 0 0 0.315 -1.379z"/>
  </svg>
  <svg x="90">
    <path d="M9.89 18.585l-3.227 -6.292a1 1 0 1 0 -1.78 0.912l2.771 5.403 -5.402 2.77a1 1 0 0 0 -0.458 1.338 1 1 0 0 0 1.339 0.458l0.031 -0.016 6.292 -3.227a1 1 0 0 0 0.434 -1.346zm5.71 1.84l-3.226 -6.293a1 1 0 1 0 -1.78 0.912l2.771 5.403 -5.402 2.77a1 1 0 0 0 -0.457 1.339 1 1 0 0 0 1.338 0.457l0.031 -0.016 6.292 -3.227a1 1 0 0 0 0.434 -1.345z"/>
  </svg>
  <svg x="108">
    <path d="M9.93 18.993l-2.61 -6.572a1 1 0 1 0 -1.859 0.738l2.24 5.642 -5.642 2.241a1 1 0 0 0 -0.583 1.288 1 1 0 0 0 1.288 0.584l0.033 -0.013 6.572 -2.61a1 1 0 0 0 0.56 -1.298zm5.508 2.377l-2.61 -6.572a1 1 0 1 0 -1.859 0.738l2.242 5.643 -5.643 2.24a1 1 0 0 0 -0.583 1.289 1 1 0 0 0 1.288 0.583l0.033 -0.013 6.572 -2.61a1 1 0 0 0 0.56 -1.298z"/>
  </svg>
  <svg x="126">
    <path d="M9.962 19.434l-1.92 -6.805a1 1 0 1 0 -1.925 0.543l1.65 5.843 -5.844 1.649a1 1 0 0 0 -0.712 1.222 1 1 0 0 0 1.221 0.712c0.012 -0.002 0.023 -0.006 0.034 -0.01l6.806 -1.92a1 1 0 0 0 0.69 -1.234zm5.236 2.93l-1.92 -6.804a1 1 0 1 0 -1.925 0.543l1.649 5.843 -5.843 1.649a1 1 0 0 0 -0.713 1.221 1 1 0 0 0 1.222 0.713l0.034 -0.01 6.805 -1.92a1 1 0 0 0 0.69 -1.234z"/>
  </svg>
  <svg x="144">
    <path d="M9.986 19.9l-1.176 -6.972a1 1 0 1 0 -1.972 0.333l1.01 5.986 -5.987 1.01a1 1 0 0 0 -0.84 1.137 1 1 0 0 0 1.138 0.84c0.012 -0.001 0.024 -0.004 0.035 -0.006l6.972 -1.175a1 1 0 0 0 0.82 -1.153zm4.889 3.478l-1.176 -6.972a1 1 0 1 0 -1.972 0.333l1.01 5.986 -5.987 1.01a1 1 0 0 0 -0.84 1.137 1 1 0 0 0 1.138 0.84c0.012 -0.001 0.024 -0.004 0.035 -0.006l6.972 -1.175a1 1 0 0 0 0.82 -1.153z"/>
  </svg>
  <svg x="162">
    <path d="M9.998 20.382l-0.396 -7.06a1 1 0 1 0 -1.997 0.112l0.34 6.061 -6.061 0.34a1 1 0 0 0 -0.96 1.038 1 1 0 0 0 1.037 0.961l0.035 -0.002 7.06 -0.396a1 1 0 0 0 0.942 -1.054zm4.474 3.998l-0.396 -7.06a1 1 0 1 0 -1.997 0.112l0.34 6.062 -6.061 0.34a1 1 0 0 0 -0.961 1.037 1 1 0 0 0 1.037 0.961l0.036 -0.002 7.06 -0.396a1 1 0 0 0 0.942 -1.054z"/>
  </svg>
  <svg x="180">
    <path d="M9.998 20.868l0.396 -7.06a1 1 0 1 0 -1.997 -0.112l-0.34 6.062 -6.061 -0.34a1 1 0 0 0 -1.07 0.924 1 1 0 0 0 0.923 1.07l0.035 0.003 7.06 0.396a1 1 0 0 0 1.054 -0.943zm3.999 4.474l0.396 -7.06a1 1 0 1 0 -1.997 -0.112l-0.34 6.062 -6.062 -0.34a1 1 0 0 0 -1.07 0.923 1 1 0 0 0 0.923 1.071 0.211 0.211 0 0 0 0.035 0.002l7.06 0.396a1 1 0 0 0 1.055 -0.942z"/>
  </svg>
  <svg x="198">
    <path d="M9.986 21.35l1.176 -6.973a1 1 0 1 0 -1.972 -0.333l-1.01 5.987 -5.986 -1.01a1 1 0 0 0 -1.167 0.8 1 1 0 0 0 0.8 1.167l0.034 0.005 6.973 1.176a1 1 0 0 0 1.152 -0.82zm3.478 4.889l1.176 -6.973a1 1 0 1 0 -1.972 -0.333l-1.01 5.987 -5.986 -1.01a1 1 0 0 0 -1.167 0.8 1 1 0 0 0 0.8 1.167l0.034 0.006 6.973 1.175a1 1 0 0 0 1.152 -0.82z"/>
  </svg>
  <svg x="216">
    <path d="M9.962 21.816l1.92 -6.805a1 1 0 1 0 -1.925 -0.543l-1.648 5.843 -5.843 -1.65a1 1 0 0 0 -1.246 0.67 1 1 0 0 0 0.67 1.245l0.033 0.01 6.805 1.92a1 1 0 0 0 1.234 -0.69zm2.931 5.235l1.92 -6.805a1 1 0 1 0 -1.925 -0.543l-1.648 5.843 -5.843 -1.649a1 1 0 0 0 -1.246 0.669 1 1 0 0 0 0.669 1.246l0.034 0.01 6.805 1.92a1 1 0 0 0 1.234 -0.69z"/>
  </svg>
  <svg x="234">
    <path d="M9.93 22.257l2.609 -6.572a1 1 0 1 0 -1.859 -0.738l-2.24 5.643 -5.643 -2.24a1 1 0 0 0 -1.308 0.537 1 1 0 0 0 0.537 1.308l0.033 0.013 6.572 2.61a1 1 0 0 0 1.298 -0.56zm2.377 5.51l2.61 -6.573a1 1 0 1 0 -1.859 -0.738l-2.24 5.643 -5.644 -2.24a1 1 0 0 0 -1.308 0.537 1 1 0 0 0 0.538 1.308l0.032 0.013 6.572 2.61a1 1 0 0 0 1.299 -0.56z"/>
  </svg>
  <svg x="252">
    <path d="M9.89 22.665l3.226 -6.292a1 1 0 1 0 -1.78 -0.912l-2.77 5.402 -5.402 -2.77a1 1 0 0 0 -1.353 0.41 1 1 0 0 0 0.41 1.353l0.03 0.016 6.293 3.226a1 1 0 0 0 1.346 -0.433zm1.84 5.71l3.226 -6.291a1 1 0 1 0 -1.78 -0.912l-2.77 5.402 -5.402 -2.77a1 1 0 0 0 -1.354 0.41 1 1 0 0 0 0.41 1.353l0.031 0.016 6.292 3.226a1 1 0 0 0 1.346 -0.433z"/>
  </svg>
  <svg x="270">
    <path d="M9.847 23.03l3.759 -5.99a1 1 0 1 0 -1.694 -1.063l-3.227 5.143 -5.143 -3.228a1 1 0 0 0 -1.384 0.291 1 1 0 0 0 0.291 1.384l0.03 0.02 5.99 3.758a1 1 0 0 0 1.378 -0.315zm1.338 5.849l3.759 -5.99a1 1 0 1 0 -1.694 -1.063l-3.227 5.143 -5.143 -3.228a1 1 0 0 0 -1.384 0.291 1 1 0 0 0 0.291 1.384l0.03 0.02 5.99 3.758a1 1 0 0 0 1.378 -0.315z"/>
  </svg>
  <svg x="288">
    <path d="M9.804 23.345l4.2 -5.689a1 1 0 1 0 -1.609 -1.188l-3.605 4.884 -4.885 -3.606a1 1 0 0 0 -1.402 0.186 1 1 0 0 0 0.186 1.402l0.029 0.02 5.688 4.201a1 1 0 0 0 1.398 -0.21zm0.893 5.933l4.2 -5.689a1 1 0 1 0 -1.609 -1.188l-3.605 4.885 -4.885 -3.607a1 1 0 0 0 -1.402 0.186 1 1 0 0 0 0.186 1.402l0.029 0.021 5.688 4.2a1 1 0 0 0 1.398 -0.21z"/>
  </svg>
  <svg x="306">
    <path d="M9.766 23.602l4.546 -5.416a1 1 0 1 0 -1.532 -1.286l-3.903 4.65 -4.65 -3.903a1 1 0 0 0 -1.411 0.098 1 1 0 0 0 0.098 1.41c0.009 0.01 0.018 0.016 0.027 0.024l5.416 4.546a1 1 0 0 0 1.409 -0.123zm0.522 5.977l4.546 -5.416a1 1 0 1 0 -1.532 -1.286l-3.903 4.65 -4.65 -3.903a1 1 0 0 0 -1.411 0.098 1 1 0 0 0 0.098 1.411l0.027 0.023 5.416 4.546a1 1 0 0 0 1.409 -0.123z"/>
  </svg>
  <svg x="324">
    <path d="M9.735 23.794l4.795 -5.196a1 1 0 1 0 -1.47 -1.356l-4.117 4.461 -4.461 -4.117a1 1 0 0 0 -1.414 0.031 1 1 0 0 0 0.032 1.414 0.195 0.195 0 0 0 0.026 0.024l5.196 4.796a1 1 0 0 0 1.413 -0.057zm0.24 5.995l4.796 -5.196a1 1 0 1 0 -1.47 -1.356l-4.117 4.461 -4.462 -4.117a1 1 0 0 0 -1.414 0.032 1 1 0 0 0 0.032 1.413c0.008 0.01 0.018 0.017 0.026 0.024l5.196 4.796a1 1 0 0 0 1.413 -0.057z"/>
  </svg>
  <svg x="342">
    <path d="M9.714 23.915l4.948 -5.052a1 1 0 1 0 -1.429 -1.4l-4.248 4.338 -4.337 -4.248a1 1 0 0 0 -1.414 -0.01 1 1 0 0 0 -0.01 1.414l0.025 0.025 5.051 4.948a1 1 0 0 0 1.414 -0.015zm0.062 6l4.948 -5.052a1 1 0 1 0 -1.429 -1.4l-4.247 4.338 -4.338 -4.248a1 1 0 0 0 -1.414 -0.01 1 1 0 0 0 -0.01 1.414l0.025 0.024 5.052 4.948a1 1 0 0 0 1.413 -0.014z"/>
  </svg>
  <svg x="360">
    <path d="M9.707 23.957l5 -5a1 1 0 1 0 -1.414 -1.414l-4.293 4.293 -4.293 -4.293a1 1 0 0 0 -1.414 -0.025 1 1 0 0 0 -0.025 1.414l0.025 0.025 5 5a1 1 0 0 0 1.414 0zm0 6l5 -5a1 1 0 1 0 -1.414 -1.414l-4.293 4.293 -4.293 -4.293a1 1 0 0 0 -1.414 -0.025 1 1 0 0 0 -0.025 1.414l0.025 0.025 5 5a1 1 0 0 0 1.414 0z"/>
  </svg>
  <svg x="378">
    <path d="M9.707 23.957l5 -5a1 1 0 1 0 -1.414 -1.414l-4.293 4.293 -4.293 -4.293a1 1 0 0 0 -1.414 -0.025 1 1 0 0 0 -0.025 1.414l0.025 0.025 5 5a1 1 0 0 0 1.414 0zm0 6l5 -5a1 1 0 1 0 -1.414 -1.414l-4.293 4.293 -4.293 -4.293a1 1 0 0 0 -1.414 -0.025 1 1 0 0 0 -0.025 1.414l0.025 0.025 5 5a1 1 0 0 0 1.414 0z"/>
  </svg>
  <svg x="396">
    <path d="M9.707 23.957l5 -5a1 1 0 1 0 -1.414 -1.414l-4.293 4.293 -4.293 -4.293a1 1 0 0 0 -1.414 -0.025 1 1 0 0 0 -0.025 1.414l0.025 0.025 5 5a1 1 0 0 0 1.414 0zm0 6l5 -5a1 1 0 1 0 -1.414 -1.414l-4.293 4.293 -4.293 -4.293a1 1 0 0 0 -1.414 -0.025 1 1 0 0 0 -0.025 1.414l0.025 0.025 5 5a1 1 0 0 0 1.414 0z"/>
  </svg>
  <svg x="414">
    <path d="M9.707 23.957l5 -5a1 1 0 1 0 -1.414 -1.414l-4.293 4.293 -4.293 -4.293a1 1 0 0 0 -1.414 -0.025 1 1 0 0 0 -0.025 1.414l0.025 0.025 5 5a1 1 0 0 0 1.414 0zm0 6l5 -5a1 1 0 1 0 -1.414 -1.414l-4.293 4.293 -4.293 -4.293a1 1 0 0 0 -1.414 -0.025 1 1 0 0 0 -0.025 1.414l0.025 0.025 5 5a1 1 0 0 0 1.414 0z"/>
  </svg>
  <svg x="432">
    <path d="M9.707 23.957l5 -5a1 1 0 1 0 -1.414 -1.414l-4.293 4.293 -4.293 -4.293a1 1 0 0 0 -1.414 -0.025 1 1 0 0 0 -0.025 1.414l0.025 0.025 5 5a1 1 0 0 0 1.414 0zm0 6l5 -5a1 1 0 1 0 -1.414 -1.414l-4.293 4.293 -4.293 -4.293a1 1 0 0 0 -1.414 -0.025 1 1 0 0 0 -0.025 1.414l0.025 0.025 5 5a1 1 0 0 0 1.414 0z"/>
  </svg>
  <svg x="450">
    <path d="M9.707 23.957l5 -5a1 1 0 1 0 -1.414 -1.414l-4.293 4.293 -4.293 -4.293a1 1 0 0 0 -1.414 -0.025 1 1 0 0 0 -0.025 1.414l0.025 0.025 5 5a1 1 0 0 0 1.414 0zm0 6l5 -5a1 1 0 1 0 -1.414 -1.414l-4.293 4.293 -4.293 -4.293a1 1 0 0 0 -1.414 -0.025 1 1 0 0 0 -0.025 1.414l0.025 0.025 5 5a1 1 0 0 0 1.414 0z"/>
  </svg>
  <svg x="468">
    <path d="M9.707 23.957l5 -5a1 1 0 1 0 -1.414 -1.414l-4.293 4.293 -4.293 -4.293a1 1 0 0 0 -1.414 -0.025 1 1 0 0 0 -0.025 1.414l0.025 0.025 5 5a1 1 0 0 0 1.414 0zm0 6l5 -5a1 1 0 1 0 -1.414 -1.414l-4.293 4.293 -4.293 -4.293a1 1 0 0 0 -1.414 -0.025 1 1 0 0 0 -0.025 1.414l0.025 0.025 5 5a1 1 0 0 0 1.414 0z"/>
  </svg>
  <svg x="486">
    <path d="M9.722 23.957l5.103 -5a0.985 0.985 0 0 0 -0.026 -1.414 1.036 1.036 0 0 0 -1.418 0l-4.381 4.293 -4.381 -4.293a1.036 1.036 0 0 0 -1.444 -0.025 0.987 0.987 0 0 0 -0.025 1.414l0.025 0.025 5.103 5a1.036 1.036 0 0 0 1.444 0zm0 6l5.103 -5a0.985 0.985 0 0 0 -0.026 -1.414 1.036 1.036 0 0 0 -1.418 0l-4.381 4.293 -4.381 -4.293a1.036 1.036 0 0 0 -1.444 -0.025 0.987 0.987 0 0 0 -0.025 1.414l0.025 0.025 5.103 5a1.036 1.036 0 0 0 1.444 0z"/>
  </svg>
  <svg x="504">
    <path d="M9.738 23.957l5.217 -5a0.97 0.97 0 0 0 -0.026 -1.414 1.076 1.076 0 0 0 -1.45 0l-4.479 4.293 -4.48 -4.293a1.077 1.077 0 0 0 -1.475 -0.025 0.972 0.972 0 0 0 -0.026 1.414l0.026 0.025 5.217 5a1.077 1.077 0 0 0 1.476 0zm0 6l5.217 -5a0.97 0.97 0 0 0 -0.026 -1.414 1.076 1.076 0 0 0 -1.45 0l-4.479 4.293 -4.48 -4.293a1.077 1.077 0 0 0 -1.475 -0.025 0.972 0.972 0 0 0 -0.026 1.414l0.026 0.025 5.217 5a1.077 1.077 0 0 0 1.476 0z"/>
  </svg>
  <svg x="522">
    <path d="M9.755 24.235l5.34 -5c0.41 -0.397 0.398 -1.03 -0.027 -1.414 -0.413 -0.374 -1.069 -0.374 -1.483 0l-4.585 4.293 -4.585 -4.293c-0.41 -0.397 -1.086 -0.408 -1.51 -0.025 -0.424 0.384 -0.435 1.017 -0.026 1.414 0.008 0.01 0.018 0.017 0.026 0.025l5.34 5c0.418 0.39 1.092 0.39 1.51 0zm0 6l5.34 -5c0.41 -0.397 0.398 -1.03 -0.027 -1.414 -0.413 -0.374 -1.069 -0.374 -1.483 0l-4.585 4.293 -4.585 -4.293c-0.41 -0.397 -1.086 -0.408 -1.51 -0.025 -0.424 0.384 -0.435 1.017 -0.026 1.414 0.008 0.01 0.018 0.017 0.026 0.025l5.34 5c0.418 0.39 1.092 0.39 1.51 0z"/>
  </svg>
  <svg x="540">
    <path d="M9.773 24.93l5.466 -5c0.42 -0.397 0.408 -1.03 -0.027 -1.414 -0.423 -0.374 -1.094 -0.374 -1.518 0l-4.694 4.293 -4.694 -4.293c-0.42 -0.397 -1.111 -0.408 -1.545 -0.025 -0.434 0.384 -0.447 1.017 -0.028 1.414l0.028 0.025 5.466 5c0.428 0.39 1.118 0.39 1.546 0zm0 6l5.466 -5c0.42 -0.397 0.408 -1.03 -0.027 -1.414 -0.423 -0.374 -1.094 -0.374 -1.518 0l-4.694 4.293 -4.694 -4.293c-0.42 -0.397 -1.111 -0.408 -1.545 -0.025 -0.434 0.384 -0.447 1.017 -0.028 1.414l0.028 0.025 5.466 5c0.428 0.39 1.118 0.39 1.546 0z"/>
  </svg>
  <svg x="558">
    <path d="M9.791 25.832l5.595 -5c0.43 -0.397 0.417 -1.03 -0.028 -1.414 -0.433 -0.374 -1.12 -0.374 -1.555 0l-4.803 4.293 -4.803 -4.293c-0.43 -0.397 -1.138 -0.408 -1.583 -0.025 -0.444 0.384 -0.456 1.017 -0.027 1.414 0.008 0.009 0.019 0.017 0.027 0.025l5.595 5c0.437 0.39 1.145 0.39 1.582 0zm0 6l5.595 -5c0.43 -0.397 0.417 -1.03 -0.028 -1.414 -0.433 -0.374 -1.12 -0.374 -1.555 0l-4.803 4.293 -4.803 -4.293c-0.43 -0.397 -1.138 -0.408 -1.583 -0.025 -0.444 0.384 -0.456 1.017 -0.027 1.414 0.008 0.009 0.019 0.017 0.027 0.025l5.595 5c0.437 0.39 1.145 0.39 1.582 0z"/>
  </svg>
  <svg x="576">
    <path d="M9.809 26.734l5.72 -5c0.44 -0.397 0.427 -1.03 -0.029 -1.414 -0.442 -0.374 -1.145 -0.374 -1.589 0l-4.911 4.293 -4.911 -4.293c-0.44 -0.397 -1.164 -0.408 -1.618 -0.025 -0.454 0.384 -0.467 1.017 -0.029 1.414 0.01 0.01 0.02 0.017 0.029 0.025l5.72 5c0.447 0.39 1.17 0.39 1.618 0zm0 6l5.72 -5c0.44 -0.397 0.427 -1.03 -0.029 -1.414 -0.442 -0.374 -1.145 -0.374 -1.589 0l-4.911 4.293 -4.911 -4.293c-0.44 -0.397 -1.164 -0.408 -1.618 -0.025 -0.454 0.384 -0.467 1.017 -0.029 1.414 0.01 0.01 0.02 0.017 0.029 0.025l5.72 5c0.447 0.39 1.17 0.39 1.618 0z"/>
  </svg>
  <svg x="594">
    <path d="M9.826 27.429l5.84 -5c0.449 -0.397 0.436 -1.03 -0.03 -1.414 -0.451 -0.374 -1.168 -0.374 -1.622 0l-5.014 4.293 -5.014 -4.293c-0.449 -0.397 -1.188 -0.408 -1.652 -0.025 -0.464 0.384 -0.477 1.017 -0.03 1.414l0.03 0.025 5.84 5c0.457 0.39 1.195 0.39 1.652 0zm0 6l5.84 -5c0.449 -0.397 0.436 -1.03 -0.03 -1.414 -0.451 -0.374 -1.168 -0.374 -1.622 0l-5.014 4.293 -5.014 -4.293c-0.449 -0.397 -1.188 -0.408 -1.652 -0.025 -0.464 0.384 -0.477 1.017 -0.03 1.414l0.03 0.025 5.84 5c0.457 0.39 1.195 0.39 1.652 0z"/>
  </svg>
  <svg x="612">
    <path d="M9.841 27.707l5.952 -5c0.457 -0.397 0.444 -1.03 -0.03 -1.414 -0.46 -0.374 -1.192 -0.374 -1.653 0l-5.11 4.293 -5.11 -4.293c-0.457 -0.397 -1.21 -0.408 -1.683 -0.025 -0.472 0.384 -0.485 1.017 -0.03 1.414l0.03 0.025 5.952 5c0.465 0.39 1.217 0.39 1.682 0zm0 6l5.952 -5c0.457 -0.397 0.444 -1.03 -0.03 -1.414 -0.46 -0.374 -1.192 -0.374 -1.653 0l-5.11 4.293 -5.11 -4.293c-0.457 -0.397 -1.21 -0.408 -1.683 -0.025 -0.472 0.384 -0.485 1.017 -0.03 1.414l0.03 0.025 5.952 5c0.465 0.39 1.217 0.39 1.682 0z"/>
  </svg>
  <svg x="630">
    <path d="M9.855 27.317l6.05 -5c0.465 -0.397 0.451 -1.03 -0.03 -1.414 -0.469 -0.374 -1.211 -0.374 -1.68 0l-5.195 4.293 -5.194 -4.293c-0.465 -0.397 -1.23 -0.408 -1.711 -0.025 -0.48 0.384 -0.494 1.017 -0.03 1.414l0.03 0.025 6.05 5c0.473 0.39 1.237 0.39 1.71 0zm0 6l6.05 -5c0.465 -0.397 0.451 -1.03 -0.03 -1.414 -0.469 -0.374 -1.211 -0.374 -1.68 0l-5.195 4.293 -5.194 -4.293c-0.465 -0.397 -1.23 -0.408 -1.711 -0.025 -0.48 0.384 -0.494 1.017 -0.03 1.414l0.03 0.025 6.05 5c0.473 0.39 1.237 0.39 1.71 0z"/>
  </svg>
  <svg x="648">
    <path d="M9.867 26.387l6.132 -5c0.471 -0.397 0.458 -1.03 -0.03 -1.414 -0.475 -0.374 -1.228 -0.374 -1.704 0l-5.265 4.293 -5.265 -4.293c-0.471 -0.397 -1.247 -0.408 -1.734 -0.025 -0.487 0.384 -0.5 1.017 -0.03 1.414 0.009 0.009 0.02 0.017 0.03 0.025l6.132 5c0.48 0.39 1.255 0.39 1.734 0zm0 6l6.132 -5c0.471 -0.397 0.458 -1.03 -0.03 -1.414 -0.475 -0.374 -1.228 -0.374 -1.704 0l-5.265 4.293 -5.265 -4.293c-0.471 -0.397 -1.247 -0.408 -1.734 -0.025 -0.487 0.384 -0.5 1.017 -0.03 1.414 0.009 0.009 0.02 0.017 0.03 0.025l6.132 5c0.48 0.39 1.255 0.39 1.734 0z"/>
  </svg>
  <svg x="666">
    <path d="M9.876 25.277l6.195 -5c0.476 -0.397 0.462 -1.03 -0.03 -1.414 -0.48 -0.374 -1.241 -0.374 -1.722 0l-5.319 4.293 -5.32 -4.293c-0.475 -0.397 -1.26 -0.408 -1.751 -0.025 -0.492 0.384 -0.506 1.017 -0.031 1.414 0.01 0.01 0.02 0.017 0.03 0.025l6.196 5c0.484 0.39 1.268 0.39 1.752 0zm0 6l6.195 -5c0.476 -0.397 0.462 -1.03 -0.03 -1.414 -0.48 -0.374 -1.241 -0.374 -1.722 0l-5.319 4.293 -5.32 -4.293c-0.475 -0.397 -1.26 -0.408 -1.751 -0.025 -0.492 0.384 -0.506 1.017 -0.031 1.414 0.01 0.01 0.02 0.017 0.03 0.025l6.196 5c0.484 0.39 1.268 0.39 1.752 0z"/>
  </svg>
  <svg x="684">
    <path d="M9.882 24.347l6.235 -5c0.48 -0.397 0.466 -1.03 -0.03 -1.414 -0.483 -0.374 -1.25 -0.374 -1.733 0l-5.354 4.293 -5.354 -4.293c-0.479 -0.397 -1.268 -0.408 -1.763 -0.025 -0.496 0.384 -0.51 1.017 -0.032 1.414 0.01 0.01 0.022 0.017 0.032 0.025l6.235 5c0.488 0.39 1.276 0.39 1.764 0zm0 6l6.235 -5c0.48 -0.397 0.466 -1.03 -0.03 -1.414 -0.483 -0.374 -1.25 -0.374 -1.733 0l-5.354 4.293 -5.354 -4.293c-0.479 -0.397 -1.268 -0.408 -1.763 -0.025 -0.496 0.384 -0.51 1.017 -0.032 1.414 0.01 0.01 0.022 0.017 0.032 0.025l6.235 5c0.488 0.39 1.276 0.39 1.764 0z"/>
  </svg>
  <svg x="702">
    <path d="M9.884 23.957l6.25 -5c0.48 -0.397 0.466 -1.03 -0.032 -1.414 -0.483 -0.374 -1.25 -0.374 -1.736 0l-5.366 4.293 -5.366 -4.293c-0.48 -0.397 -1.272 -0.408 -1.768 -0.025 -0.496 0.384 -0.51 1.017 -0.031 1.414l0.031 0.025 6.25 5c0.489 0.39 1.279 0.39 1.768 0zm0 6l6.25 -5c0.48 -0.397 0.466 -1.03 -0.032 -1.414 -0.483 -0.374 -1.25 -0.374 -1.736 0l-5.366 4.293 -5.366 -4.293c-0.48 -0.397 -1.272 -0.408 -1.768 -0.025 -0.496 0.384 -0.51 1.017 -0.031 1.414l0.031 0.025 6.25 5c0.489 0.39 1.279 0.39 1.768 0z"/>
  </svg>
  <svg x="720">
    <path d="M9.862 23.957l6.098 -5c0.468 -0.397 0.454 -1.03 -0.03 -1.414 -0.473 -0.374 -1.222 -0.374 -1.695 0l-5.235 4.293 -5.235 -4.293c-0.468 -0.397 -1.24 -0.408 -1.725 -0.025 -0.484 0.384 -0.497 1.017 -0.03 1.414l0.03 0.025 6.098 5c0.477 0.39 1.247 0.39 1.724 0zm0 6l6.098 -5c0.468 -0.397 0.454 -1.03 -0.03 -1.414 -0.473 -0.374 -1.222 -0.374 -1.695 0l-5.235 4.293 -5.235 -4.293c-0.468 -0.397 -1.24 -0.408 -1.725 -0.025 -0.484 0.384 -0.497 1.017 -0.03 1.414l0.03 0.025 6.098 5c0.477 0.39 1.247 0.39 1.724 0z"/>
  </svg>
  <svg x="738">
    <path d="M9.838 23.957l5.924 -5c0.455 -0.397 0.442 -1.03 -0.03 -1.414 -0.458 -0.374 -1.186 -0.374 -1.645 0l-5.087 4.293 -5.087 -4.293c-0.455 -0.397 -1.205 -0.408 -1.675 -0.025 -0.47 0.384 -0.483 1.017 -0.03 1.414l0.03 0.025 5.924 5c0.464 0.39 1.212 0.39 1.676 0zm0 6l5.924 -5c0.455 -0.397 0.442 -1.03 -0.03 -1.414 -0.458 -0.374 -1.186 -0.374 -1.645 0l-5.087 4.293 -5.087 -4.293c-0.455 -0.397 -1.205 -0.408 -1.675 -0.025 -0.47 0.384 -0.483 1.017 -0.03 1.414l0.03 0.025 5.924 5c0.464 0.39 1.212 0.39 1.676 0z"/>
  </svg>
  <svg x="756">
    <path d="M9.812 23.957l5.74 -5c0.441 -0.397 0.429 -1.03 -0.028 -1.414 -0.444 -0.374 -1.15 -0.374 -1.595 0l-4.929 4.293 -4.93 -4.293c-0.44 -0.397 -1.167 -0.408 -1.623 -0.025 -0.455 0.384 -0.468 1.017 -0.028 1.414l0.028 0.025 5.741 5c0.45 0.39 1.175 0.39 1.624 0zm0 6l5.74 -5c0.441 -0.397 0.429 -1.03 -0.028 -1.414 -0.444 -0.374 -1.15 -0.374 -1.595 0l-4.929 4.293 -4.93 -4.293c-0.44 -0.397 -1.167 -0.408 -1.623 -0.025 -0.455 0.384 -0.468 1.017 -0.028 1.414l0.028 0.025 5.741 5c0.45 0.39 1.175 0.39 1.624 0z"/>
  </svg>
  <svg x="774">
    <path d="M9.786 23.957l5.557 -5c0.427 -0.397 0.415 -1.03 -0.028 -1.414 -0.43 -0.374 -1.112 -0.374 -1.543 0l-4.772 4.293 -4.772 -4.293c-0.426 -0.397 -1.13 -0.408 -1.571 -0.025 -0.441 0.384 -0.454 1.017 -0.028 1.414l0.028 0.025 5.557 5c0.435 0.39 1.137 0.39 1.572 0zm0 6l5.557 -5c0.427 -0.397 0.415 -1.03 -0.028 -1.414 -0.43 -0.374 -1.112 -0.374 -1.543 0l-4.772 4.293 -4.772 -4.293c-0.426 -0.397 -1.13 -0.408 -1.571 -0.025 -0.441 0.384 -0.454 1.017 -0.028 1.414l0.028 0.025 5.557 5c0.435 0.39 1.137 0.39 1.572 0z"/>
  </svg>
  <svg x="792">
    <path d="M9.761 23.957l5.385 -5c0.413 -0.397 0.401 -1.03 -0.027 -1.414 -0.417 -0.374 -1.078 -0.374 -1.496 0l-4.623 4.293 -4.623 -4.293c-0.413 -0.397 -1.095 -0.408 -1.523 -0.025 -0.427 0.384 -0.439 1.017 -0.027 1.414l0.027 0.025 5.385 5c0.42 0.39 1.101 0.39 1.522 0zm0 6l5.385 -5c0.413 -0.397 0.401 -1.03 -0.027 -1.414 -0.417 -0.374 -1.078 -0.374 -1.496 0l-4.623 4.293 -4.623 -4.293c-0.413 -0.397 -1.095 -0.408 -1.523 -0.025 -0.427 0.384 -0.439 1.017 -0.027 1.414l0.027 0.025 5.385 5c0.42 0.39 1.101 0.39 1.522 0z"/>
  </svg>
  <svg x="810">
    <path d="M9.74 23.957l5.231 -5a0.968 0.968 0 0 0 -0.026 -1.414 1.082 1.082 0 0 0 -1.453 0l-4.492 4.293 -4.492 -4.293a1.082 1.082 0 0 0 -1.48 -0.025 0.97 0.97 0 0 0 -0.026 1.414l0.027 0.025 5.231 5a1.082 1.082 0 0 0 1.48 0zm0 6l5.231 -5a0.968 0.968 0 0 0 -0.026 -1.414 1.082 1.082 0 0 0 -1.453 0l-4.492 4.293 -4.492 -4.293a1.082 1.082 0 0 0 -1.48 -0.025 0.97 0.97 0 0 0 -0.026 1.414l0.027 0.025 5.231 5a1.082 1.082 0 0 0 1.48 0z"/>
  </svg>
  <svg x="828">
    <path d="M9.723 23.957l5.11 -5a0.984 0.984 0 0 0 -0.026 -1.414 1.038 1.038 0 0 0 -1.42 0l-4.387 4.293 -4.387 -4.293a1.039 1.039 0 0 0 -1.445 -0.025 0.986 0.986 0 0 0 -0.026 1.414l0.026 0.025 5.11 5a1.039 1.039 0 0 0 1.445 0zm0 6l5.11 -5a0.984 0.984 0 0 0 -0.026 -1.414 1.038 1.038 0 0 0 -1.42 0l-4.387 4.293 -4.387 -4.293a1.039 1.039 0 0 0 -1.445 -0.025 0.986 0.986 0 0 0 -0.026 1.414l0.026 0.025 5.11 5a1.039 1.039 0 0 0 1.445 0z"/>
  </svg>
  <svg x="846">
    <path d="M9.711 23.957l5.03 -5a0.995 0.995 0 0 0 -0.026 -1.414 1.01 1.01 0 0 0 -1.397 0l-4.318 4.293 -4.318 -4.293a1.01 1.01 0 0 0 -1.422 -0.025 0.997 0.997 0 0 0 -0.025 1.414l0.025 0.025 5.029 5a1.01 1.01 0 0 0 1.422 0zm0 6l5.03 -5a0.995 0.995 0 0 0 -0.026 -1.414 1.01 1.01 0 0 0 -1.397 0l-4.318 4.293 -4.318 -4.293a1.01 1.01 0 0 0 -1.422 -0.025 0.997 0.997 0 0 0 -0.025 1.414l0.025 0.025 5.029 5a1.01 1.01 0 0 0 1.422 0z"/>
  </svg>
  <svg x="864">
    <path d="M9.707 23.957l5 -5a1 1 0 1 0 -1.414 -1.414l-4.293 4.293 -4.293 -4.293a1 1 0 0 0 -1.414 -0.025 1 1 0 0 0 -0.025 1.414l0.025 0.025 5 5a1 1 0 0 0 1.414 0zm0 6l5 -5a1 1 0 1 0 -1.414 -1.414l-4.293 4.293 -4.293 -4.293a1 1 0 0 0 -1.414 -0.025 1 1 0 0 0 -0.025 1.414l0.025 0.025 5 5a1 1 0 0 0 1.414 0z"/>
  </svg>
  <svg x="882">
    <path d="M9.707 23.957l5 -5a1 1 0 1 0 -1.414 -1.414l-4.293 4.293 -4.293 -4.293a1 1 0 0 0 -1.414 -0.025 1 1 0 0 0 -0.025 1.414l0.025 0.025 5 5a1 1 0 0 0 1.414 0zm0 6l5 -5a1 1 0 1 0 -1.414 -1.414l-4.293 4.293 -4.293 -4.293a1 1 0 0 0 -1.414 -0.025 1 1 0 0 0 -0.025 1.414l0.025 0.025 5 5a1 1 0 0 0 1.414 0z"/>
  </svg>
  <svg x="900">
    <path d="M9.707 23.957l5 -5a1 1 0 1 0 -1.414 -1.414l-4.293 4.293 -4.293 -4.293a1 1 0 0 0 -1.414 -0.025 1 1 0 0 0 -0.025 1.414l0.025 0.025 5 5a1 1 0 0 0 1.414 0zm0 6l5 -5a1 1 0 1 0 -1.414 -1.414l-4.293 4.293 -4.293 -4.293a1 1 0 0 0 -1.414 -0.025 1 1 0 0 0 -0.025 1.414l0.025 0.025 5 5a1 1 0 0 0 1.414 0z"/>
  </svg>
  <svg x="918">
    <path d="M9.707 23.957l5 -5a1 1 0 1 0 -1.414 -1.414l-4.293 4.293 -4.293 -4.293a1 1 0 0 0 -1.414 -0.025 1 1 0 0 0 -0.025 1.414l0.025 0.025 5 5a1 1 0 0 0 1.414 0zm0 6l5 -5a1 1 0 1 0 -1.414 -1.414l-4.293 4.293 -4.293 -4.293a1 1 0 0 0 -1.414 -0.025 1 1 0 0 0 -0.025 1.414l0.025 0.025 5 5a1 1 0 0 0 1.414 0z"/>
  </svg>
  <svg x="936">
    <path d="M9.707 23.957l5 -5a1 1 0 1 0 -1.414 -1.414l-4.293 4.293 -4.293 -4.293a1 1 0 0 0 -1.414 -0.025 1 1 0 0 0 -0.025 1.414l0.025 0.025 5 5a1 1 0 0 0 1.414 0zm0 6l5 -5a1 1 0 1 0 -1.414 -1.414l-4.293 4.293 -4.293 -4.293a1 1 0 0 0 -1.414 -0.025 1 1 0 0 0 -0.025 1.414l0.025 0.025 5 5a1 1 0 0 0 1.414 0z"/>
  </svg>
  <svg x="954">
    <path d="M9.707 23.957l5 -5a1 1 0 1 0 -1.414 -1.414l-4.293 4.293 -4.293 -4.293a1 1 0 0 0 -1.414 -0.025 1 1 0 0 0 -0.025 1.414l0.025 0.025 5 5a1 1 0 0 0 1.414 0zm0 6l5 -5a1 1 0 1 0 -1.414 -1.414l-4.293 4.293 -4.293 -4.293a1 1 0 0 0 -1.414 -0.025 1 1 0 0 0 -0.025 1.414l0.025 0.025 5 5a1 1 0 0 0 1.414 0z"/>
  </svg>
  <svg x="972">
    <path d="M9.707 23.957l5 -5a1 1 0 1 0 -1.414 -1.414l-4.293 4.293 -4.293 -4.293a1 1 0 0 0 -1.414 -0.025 1 1 0 0 0 -0.025 1.414l0.025 0.025 5 5a1 1 0 0 0 1.414 0zm0 6l5 -5a1 1 0 1 0 -1.414 -1.414l-4.293 4.293 -4.293 -4.293a1 1 0 0 0 -1.414 -0.025 1 1 0 0 0 -0.025 1.414l0.025 0.025 5 5a1 1 0 0 0 1.414 0z"/>
  </svg>
  <svg x="990">
    <path d="M9.707 23.957l5 -5a1 1 0 1 0 -1.414 -1.414l-4.293 4.293 -4.293 -4.293a1 1 0 0 0 -1.414 -0.025 1 1 0 0 0 -0.025 1.414l0.025 0.025 5 5a1 1 0 0 0 1.414 0zm0 6l5 -5a1 1 0 1 0 -1.414 -1.414l-4.293 4.293 -4.293 -4.293a1 1 0 0 0 -1.414 -0.025 1 1 0 0 0 -0.025 1.414l0.025 0.025 5 5a1 1 0 0 0 1.414 0z"/>
  </svg>
  <svg x="1008">
    <path d="M9.707 23.957l5 -5a1 1 0 1 0 -1.414 -1.414l-4.293 4.293 -4.293 -4.293a1 1 0 0 0 -1.414 -0.025 1 1 0 0 0 -0.025 1.414l0.025 0.025 5 5a1 1 0 0 0 1.414 0zm0 6l5 -5a1 1 0 1 0 -1.414 -1.414l-4.293 4.293 -4.293 -4.293a1 1 0 0 0 -1.414 -0.025 1 1 0 0 0 -0.025 1.414l0.025 0.025 5 5a1 1 0 0 0 1.414 0z"/>
  </svg>
  <svg x="1026">
    <path d="M9.707 23.957l5 -5a1 1 0 1 0 -1.414 -1.414l-4.293 4.293 -4.293 -4.293a1 1 0 0 0 -1.414 -0.025 1 1 0 0 0 -0.025 1.414l0.025 0.025 5 5a1 1 0 0 0 1.414 0zm0 6l5 -5a1 1 0 1 0 -1.414 -1.414l-4.293 4.293 -4.293 -4.293a1 1 0 0 0 -1.414 -0.025 1 1 0 0 0 -0.025 1.414l0.025 0.025 5 5a1 1 0 0 0 1.414 0z"/>
  </svg>
  <svg x="1044">
    <path d="M9.707 23.957l5 -5a1 1 0 1 0 -1.414 -1.414l-4.293 4.293 -4.293 -4.293a1 1 0 0 0 -1.414 -0.025 1 1 0 0 0 -0.025 1.414l0.025 0.025 5 5a1 1 0 0 0 1.414 0zm0 6l5 -5a1 1 0 1 0 -1.414 -1.414l-4.293 4.293 -4.293 -4.293a1 1 0 0 0 -1.414 -0.025 1 1 0 0 0 -0.025 1.414l0.025 0.025 5 5a1 1 0 0 0 1.414 0z"/>
  </svg>
  <svg x="1062">
    <path d="M9.707 23.957l5 -5a1 1 0 1 0 -1.414 -1.414l-4.293 4.293 -4.293 -4.293a1 1 0 0 0 -1.414 -0.025 1 1 0 0 0 -0.025 1.414l0.025 0.025 5 5a1 1 0 0 0 1.414 0zm0 6l5 -5a1 1 0 1 0 -1.414 -1.414l-4.293 4.293 -4.293 -4.293a1 1 0 0 0 -1.414 -0.025 1 1 0 0 0 -0.025 1.414l0.025 0.025 5 5a1 1 0 0 0 1.414 0z"/>
  </svg>
  <svg x="1080">
    <path d="M9.737 23.778l4.775 -5.215a1 1 0 1 0 -1.475 -1.35l-4.1 4.477 -4.477 -4.1a1 1 0 0 0 -1.414 0.038 1 1 0 0 0 0.037 1.413l0.027 0.024 5.215 4.775a1 1 0 0 0 1.412 -0.062zm0.265 5.994l4.775 -5.215a1 1 0 1 0 -1.475 -1.35l-4.1 4.477 -4.478 -4.1a1 1 0 0 0 -1.414 0.038 1 1 0 0 0 0.038 1.414l0.026 0.023 5.215 4.775a1 1 0 0 0 1.413 -0.062z"/>
  </svg>
  <svg x="1098">
    <path d="M9.813 23.286l4.12 -5.747a1 1 0 1 0 -1.625 -1.165l-3.538 4.934 -4.935 -3.537a1 1 0 0 0 -1.399 0.206 1 1 0 0 0 0.206 1.4c0.009 0.007 0.02 0.013 0.028 0.02l5.748 4.12a1 1 0 0 0 1.395 -0.231zm0.976 5.92l4.12 -5.747a1 1 0 1 0 -1.625 -1.165l-3.537 4.934 -4.935 -3.537a1 1 0 0 0 -1.4 0.206 1 1 0 0 0 0.206 1.4l0.029 0.02 5.747 4.12a1 1 0 0 0 1.395 -0.231z"/>
  </svg>
  <svg x="1116">
    <path d="M9.902 22.547l3.05 -6.38a1 1 0 1 0 -1.804 -0.862l-2.619 5.477 -5.477 -2.618a1 1 0 0 0 -1.342 0.447 1 1 0 0 0 0.447 1.341l0.032 0.016 6.38 3.05a1 1 0 0 0 1.333 -0.471zm1.998 5.657l3.05 -6.38a1 1 0 1 0 -1.804 -0.862l-2.619 5.478 -5.477 -2.619a1 1 0 0 0 -1.342 0.447 1 1 0 0 0 0.447 1.342c0.01 0.006 0.022 0.01 0.032 0.015l6.38 3.05a1 1 0 0 0 1.333 -0.47z"/>
  </svg>
  <svg x="1134">
    <path d="M9.973 21.632l1.628 -6.881a1 1 0 1 0 -1.946 -0.46l-1.398 5.907 -5.908 -1.398a1 1 0 0 0 -1.216 0.722 1 1 0 0 0 0.721 1.216c0.012 0.004 0.024 0.006 0.035 0.008l6.88 1.629a1 1 0 0 0 1.204 -0.743zm3.152 5.106l1.628 -6.882a1 1 0 1 0 -1.946 -0.46l-1.398 5.908 -5.908 -1.398a1 1 0 0 0 -1.217 0.721 1 1 0 0 0 0.722 1.217l0.034 0.008 6.881 1.628a1 1 0 0 0 1.204 -0.742z"/>
  </svg>
  <svg x="1152">
    <path d="M10 20.625v-7.071a1 1 0 1 0 -2 0v6.071h-6.071a1 1 0 0 0 -1.018 0.982 1 1 0 0 0 0.983 1.018h7.106a1 1 0 0 0 1 -1zm4.242 4.243v-7.071a1 1 0 1 0 -2 0v6.07h-6.07a1 1 0 0 0 -1.018 0.983 1 1 0 0 0 0.982 1.017h7.106a1 1 0 0 0 1 -1z"/>
  </svg>
  <svg x="1170">
    <path d="M9.973 19.618l-1.628 -6.88a1 1 0 1 0 -1.946 0.46l1.398 5.908 -5.908 1.398a1 1 0 0 0 -0.764 1.19 1 1 0 0 0 1.19 0.764l0.034 -0.008 6.881 -1.629a1 1 0 0 0 0.743 -1.203zm5.106 3.152l-1.629 -6.881a1 1 0 1 0 -1.946 0.46l1.398 5.908 -5.908 1.398a1 1 0 0 0 -0.764 1.19 1 1 0 0 0 1.19 0.764l0.035 -0.008 6.88 -1.628a1 1 0 0 0 0.744 -1.203z"/>
  </svg>
  <svg x="1188">
    <path d="M9.902 18.703l-3.05 -6.38a1 1 0 1 0 -1.804 0.862l2.619 5.479 -5.478 2.618a1 1 0 0 0 -0.494 1.325 1 1 0 0 0 1.325 0.495l0.032 -0.016 6.38 -3.05a1 1 0 0 0 0.47 -1.333zm5.658 1.998l-3.05 -6.38a1 1 0 1 0 -1.804 0.862l2.618 5.479 -5.477 2.618a1 1 0 0 0 -0.495 1.325 1 1 0 0 0 1.325 0.495l0.032 -0.016 6.38 -3.05a1 1 0 0 0 0.47 -1.333z"/>
  </svg>
  <svg x="1206">
    <path d="M9.813 17.964l-4.12 -5.747a1 1 0 1 0 -1.625 1.165l3.537 4.934 -4.935 3.537a1 1 0 0 0 -0.255 1.391 1 1 0 0 0 1.392 0.255l0.028 -0.02 5.747 -4.12a1 1 0 0 0 0.23 -1.395zm5.92 0.977l-4.12 -5.748a1 1 0 1 0 -1.625 1.165l3.537 4.935 -4.935 3.537a1 1 0 0 0 -0.255 1.391 1 1 0 0 0 1.392 0.255l0.028 -0.02 5.747 -4.12a1 1 0 0 0 0.23 -1.395z"/>
  </svg>
  <svg x="1224">
    <path d="M9.737 17.472l-4.775 -5.215a1 1 0 1 0 -1.475 1.35l4.1 4.478 -4.477 4.1a1 1 0 0 0 -0.088 1.411 1 1 0 0 0 1.412 0.088l0.026 -0.024 5.215 -4.775a1 1 0 0 0 0.062 -1.413zm5.995 0.264l-4.775 -5.215a1 1 0 1 0 -1.475 1.35l4.1 4.478 -4.478 4.1a1 1 0 0 0 -0.088 1.411 1 1 0 0 0 1.412 0.088l0.026 -0.024 5.215 -4.775a1 1 0 0 0 0.063 -1.413z"/>
  </svg>
  <svg x="1242">
    <path d="M9.707 17.293l-5 -5a1 1 0 1 0 -1.414 1.414l4.293 4.293 -4.293 4.293a1 1 0 0 0 -0.025 1.414 1 1 0 0 0 1.414 0.025l0.025 -0.025 5 -5a1 1 0 0 0 0 -1.414zm6 0l-5 -5a1 1 0 1 0 -1.414 1.414l4.293 4.293 -4.293 4.293a1 1 0 0 0 -0.025 1.414 1 1 0 0 0 1.414 0.025l0.025 -0.025 5 -5a1 1 0 0 0 0 -1.414z"/>
  </svg>
  <svg x="1260">
    <path d="M9.707 17.293l-5 -5a1 1 0 1 0 -1.414 1.414l4.293 4.293 -4.293 4.293a1 1 0 0 0 -0.025 1.414 1 1 0 0 0 1.414 0.025l0.025 -0.025 5 -5a1 1 0 0 0 0 -1.414zm6 0l-5 -5a1 1 0 1 0 -1.414 1.414l4.293 4.293 -4.293 4.293a1 1 0 0 0 -0.025 1.414 1 1 0 0 0 1.414 0.025l0.025 -0.025 5 -5a1 1 0 0 0 0 -1.414z"/>
  </svg>
</svg>
