{
  "alert_emails": [
    "AUDIOSTREAM_FIRST_OPEN_MS",
    "AUDIOSTREAM_LATER_OPEN_MS",
    "AUTO_REJECTED_TRANSLATION_OFFERS",
    "BAD_FALLBACK_FONT",
    "BROWSERPROVIDER_XUL_IMPORT_BOOKMARKS",
    "BROWSER_IS_ASSIST_DEFAULT",
    "BROWSER_IS_USER_DEFAULT",
    "BROWSER_IS_USER_DEFAULT_ERROR",
    "BROWSER_SET_DEFAULT_ALWAYS_CHECK",
    "BROWSER_SET_DEFAULT_DIALOG_PROMPT_RAWCOUNT",
    "BROWSER_SET_DEFAULT_ERROR",
    "BROWSER_SET_DEFAULT_RESULT",
    "BR_9_2_1_SUBJECT_ALT_NAMES",
    "BR_9_2_2_SUBJECT_COMMON_NAME",
    "CANVAS_2D_USED",
    "CANVAS_WEBGL_USED",
    "CERT_CHAIN_KEY_SIZE_STATUS",
    "CERT_CHAIN_SHA1_POLICY_STATUS",
    "CERT_VALIDATION_SUCCESS_BY_CA",
    "CHANGES_OF_DETECTED_LANGUAGE",
    "CHANGES_OF_TARGET_LANGUAGE",
    "CHARSET_OVERRIDE_SITUATION",
    "CHARSET_OVERRIDE_USED",
    "CHECK_ADDONS_MODIFIED_MS",
    "CHECK_JAVA_ENABLED",
    "COMPONENTS_SHIM_ACCESSED_BY_CONTENT",
    "COMPOSITE_FRAME_ROUNDTRIP_TIME",
    "COMPOSITE_TIME",
    "CONTENT_DOCUMENTS_DESTROYED",
    "CRASH_STORE_COMPRESSED_BYTES",
    "DATABASE_LOCKED_EXCEPTION",
    "DATABASE_SUCCESSFUL_UNLOCK",
    "DATA_STORAGE_ENTRIES",
    "DECODER_INSTANTIATED_IBM866",
    "DECODER_INSTANTIATED_ISO2022JP",
    "DECODER_INSTANTIATED_ISO_8859_5",
    "DECODER_INSTANTIATED_KOI8R",
    "DECODER_INSTANTIATED_KOI8U",
    "DECODER_INSTANTIATED_MACARABIC",
    "DECODER_INSTANTIATED_MACCE",
    "DECODER_INSTANTIATED_MACCROATIAN",
    "DECODER_INSTANTIATED_MACCYRILLIC",
    "DECODER_INSTANTIATED_MACDEVANAGARI",
    "DECODER_INSTANTIATED_MACFARSI",
    "DECODER_INSTANTIATED_MACGREEK",
    "DECODER_INSTANTIATED_MACGUJARATI",
    "DECODER_INSTANTIATED_MACGURMUKHI",
    "DECODER_INSTANTIATED_MACHEBREW",
    "DECODER_INSTANTIATED_MACICELANDIC",
    "DECODER_INSTANTIATED_MACROMANIAN",
    "DECODER_INSTANTIATED_MACTURKISH",
    "DEFECTIVE_PERMISSIONS_SQL_REMOVED",
    "DEFERRED_FINALIZE_ASYNC",
    "DENIED_TRANSLATION_OFFERS",
    "DEVICE_RESET_REASON",
    "DEVTOOLS_ANIMATIONINSPECTOR_TIME_ACTIVE_SECONDS",
    "DEVTOOLS_BROWSERCONSOLE_TIME_ACTIVE_SECONDS",
    "DEVTOOLS_CANVASDEBUGGER_TIME_ACTIVE_SECONDS",
    "DEVTOOLS_COMPUTEDVIEW_TIME_ACTIVE_SECONDS",
    "DEVTOOLS_CUSTOM_TIME_ACTIVE_SECONDS",
    "DEVTOOLS_DEBUGGER_DISPLAY_SOURCE_LOCAL_MS",
    "DEVTOOLS_DEBUGGER_DISPLAY_SOURCE_REMOTE_MS",
    "DEVTOOLS_DEVELOPERTOOLBAR_TIME_ACTIVE_SECONDS",
    "DEVTOOLS_FONTINSPECTOR_TIME_ACTIVE_SECONDS",
    "DEVTOOLS_HEAP_SNAPSHOT_EDGE_COUNT",
    "DEVTOOLS_HEAP_SNAPSHOT_NODE_COUNT",
    "DEVTOOLS_INSPECTOR_TIME_ACTIVE_SECONDS",
    "DEVTOOLS_JSBROWSERDEBUGGER_TIME_ACTIVE_SECONDS",
    "DEVTOOLS_JSDEBUGGER_TIME_ACTIVE_SECONDS",
    "DEVTOOLS_JSPROFILER_TIME_ACTIVE_SECONDS",
    "DEVTOOLS_MEMORY_BREAKDOWN_CENSUS_COUNT",
    "DEVTOOLS_MEMORY_BREAKDOWN_DOMINATOR_TREE_COUNT",
    "DEVTOOLS_MEMORY_DIFF_CENSUS",
    "DEVTOOLS_MEMORY_DOMINATOR_TREE_COUNT",
    "DEVTOOLS_MEMORY_EXPORT_SNAPSHOT_COUNT",
    "DEVTOOLS_MEMORY_FILTER_CENSUS",
    "DEVTOOLS_MEMORY_IMPORT_SNAPSHOT_COUNT",
    "DEVTOOLS_MEMORY_INVERTED_CENSUS",
    "DEVTOOLS_MEMORY_TAKE_SNAPSHOT_COUNT",
    "DEVTOOLS_MEMORY_TIME_ACTIVE_SECONDS",
    "DEVTOOLS_NETMONITOR_TIME_ACTIVE_SECONDS",
    "DEVTOOLS_OPTIONS_TIME_ACTIVE_SECONDS",
    "DEVTOOLS_PAINTFLASHING_TIME_ACTIVE_SECONDS",
    "DEVTOOLS_PERFTOOLS_CONSOLE_RECORDING_COUNT",
    "DEVTOOLS_PERFTOOLS_RECORDING_COUNT",
    "DEVTOOLS_PERFTOOLS_RECORDING_DURATION_MS",
    "DEVTOOLS_PERFTOOLS_RECORDING_EXPORT_FLAG",
    "DEVTOOLS_PERFTOOLS_RECORDING_FEATURES_USED",
    "DEVTOOLS_PERFTOOLS_RECORDING_IMPORT_FLAG",
    "DEVTOOLS_PERFTOOLS_SELECTED_VIEW_MS",
    "DEVTOOLS_READ_HEAP_SNAPSHOT_MS",
    "DEVTOOLS_RESPONSIVE_TIME_ACTIVE_SECONDS",
    "DEVTOOLS_RULEVIEW_TIME_ACTIVE_SECONDS",
    "DEVTOOLS_SAVE_HEAP_SNAPSHOT_MS",
    "DEVTOOLS_SCRATCHPAD_TIME_ACTIVE_SECONDS",
    "DEVTOOLS_SCREEN_RESOLUTION_ENUMERATED_PER_USER",
    "DEVTOOLS_SHADEREDITOR_TIME_ACTIVE_SECONDS",
    "DEVTOOLS_STORAGE_TIME_ACTIVE_SECONDS",
    "DEVTOOLS_STYLEEDITOR_TIME_ACTIVE_SECONDS",
    "DEVTOOLS_TILT_TIME_ACTIVE_SECONDS",
    "DEVTOOLS_TOOLBOX_TIME_ACTIVE_SECONDS",
    "DEVTOOLS_WEBAUDIOEDITOR_TIME_ACTIVE_SECONDS",
    "DEVTOOLS_WEBCONSOLE_TIME_ACTIVE_SECONDS",
    "DEVTOOLS_WEBIDE_CONNECTED_RUNTIME_APP_TYPE",
    "DEVTOOLS_WEBIDE_CONNECTED_RUNTIME_ID",
    "DEVTOOLS_WEBIDE_CONNECTED_RUNTIME_OS",
    "DEVTOOLS_WEBIDE_CONNECTED_RUNTIME_PLATFORM_VERSION",
    "DEVTOOLS_WEBIDE_CONNECTED_RUNTIME_PROCESSOR",
    "DEVTOOLS_WEBIDE_CONNECTED_RUNTIME_TYPE",
    "DEVTOOLS_WEBIDE_CONNECTED_RUNTIME_VERSION",
    "DEVTOOLS_WEBIDE_CONNECTION_DEBUG_USED",
    "DEVTOOLS_WEBIDE_CONNECTION_PLAY_USED",
    "DEVTOOLS_WEBIDE_CONNECTION_RESULT",
    "DEVTOOLS_WEBIDE_CONNECTION_TIME_SECONDS",
    "DEVTOOLS_WEBIDE_LOCAL_CONNECTION_RESULT",
    "DEVTOOLS_WEBIDE_OTHER_CONNECTION_RESULT",
    "DEVTOOLS_WEBIDE_REMOTE_CONNECTION_RESULT",
    "DEVTOOLS_WEBIDE_SIMULATOR_CONNECTION_RESULT",
    "DEVTOOLS_WEBIDE_TIME_ACTIVE_SECONDS",
    "DEVTOOLS_WEBIDE_USB_CONNECTION_RESULT",
    "DEVTOOLS_WEBIDE_WIFI_CONNECTION_RESULT",
    "DNT_USAGE",
    "DWRITEFONT_DELAYEDINITFONTLIST_COLLECT",
    "DWRITEFONT_DELAYEDINITFONTLIST_COUNT",
    "DWRITEFONT_DELAYEDINITFONTLIST_TOTAL",
    "DWRITEFONT_INIT_PROBLEM",
    "E10S_BLOCKED_FROM_RUNNING",
    "ENABLE_PRIVILEGE_EVER_CALLED",
    "FENNEC_DISTRIBUTION_CODE_CATEGORY",
    "FENNEC_DISTRIBUTION_DOWNLOAD_TIME_MS",
    "FENNEC_DISTRIBUTION_REFERRER_INVALID",
    "FENNEC_GLOBALHISTORY_ADD_MS",
    "FENNEC_GLOBALHISTORY_UPDATE_MS",
    "FENNEC_GLOBALHISTORY_VISITED_BUILD_MS",
    "FENNEC_HOMEPANELS_CUSTOM",
    "FENNEC_READING_LIST_COUNT",
    "FENNEC_RESTORING_ACTIVITY",
    "FENNEC_SEARCH_LOADER_TIME_MS",
    "FENNEC_STARTUP_TIME_GECKOREADY",
    "FENNEC_STARTUP_TIME_JAVAUI",
    "FENNEC_SYNC11_MIGRATIONS_COMPLETED",
    "FENNEC_SYNC11_MIGRATIONS_FAILED",
    "FENNEC_SYNC11_MIGRATIONS_SUCCEEDED",
    "FENNEC_SYNC11_MIGRATION_NOTIFICATIONS_OFFERED",
    "FENNEC_SYNC11_MIGRATION_SENTINELS_SEEN",
    "FENNEC_SYNC_NUMBER_OF_SYNCS_COMPLETED",
    "FENNEC_SYNC_NUMBER_OF_SYNCS_FAILED",
    "FENNEC_SYNC_NUMBER_OF_SYNCS_FAILED_BACKOFF",
    "FENNEC_SYNC_NUMBER_OF_SYNCS_STARTED",
    "FENNEC_TABQUEUE_QUEUESIZE",
    "FENNEC_TOPSITES_LOADER_TIME_MS",
    "FENNEC_WAS_KILLED",
    "FONTLIST_INITFACENAMELISTS",
    "FONTLIST_INITOTHERFAMILYNAMES",
    "FONTLIST_INITOTHERFAMILYNAMES_NO_DEFERRING",
    "FONT_CACHE_HIT",
    "FORCED_DEVICE_RESET_REASON",
    "FX_BOOKMARKS_TOOLBAR_INIT_MS",
    "FX_BROWSER_FULLSCREEN_USED",
    "FX_GESTURE_COMPRESS_SNAPSHOT_OF_PAGE",
    "FX_GESTURE_INSTALL_SNAPSHOT_OF_PAGE",
    "FX_NEW_WINDOW_MS",
    "FX_PAGE_LOAD_MS",
    "FX_SESSION_RESTORE_NUMBER_OF_EAGER_TABS_RESTORED",
    "FX_SESSION_RESTORE_NUMBER_OF_TABS_RESTORED",
    "FX_SESSION_RESTORE_NUMBER_OF_WINDOWS_RESTORED",
    "FX_TABLETMODE_PAGE_LOAD",
    "FX_TAB_CLICK_MS",
    "FX_TAB_SWITCH_SPINNER_VISIBLE_MS",
    "FX_THUMBNAILS_BG_CAPTURE_CANVAS_DRAW_TIME_MS",
    "FX_THUMBNAILS_BG_CAPTURE_DONE_REASON_2",
    "FX_THUMBNAILS_BG_CAPTURE_PAGE_LOAD_TIME_MS",
    "FX_THUMBNAILS_BG_CAPTURE_QUEUE_TIME_MS",
    "FX_THUMBNAILS_BG_CAPTURE_SERVICE_TIME_MS",
    "FX_THUMBNAILS_BG_QUEUE_SIZE_ON_CAPTURE",
    "FX_THUMBNAILS_CAPTURE_TIME_MS",
    "FX_THUMBNAILS_HIT_OR_MISS",
    "FX_THUMBNAILS_STORE_TIME_MS",
    "FX_TOTAL_TOP_VISITS",
    "FX_TOUCH_USED",
    "GDI_INITFONTLIST_TOTAL",
    "GEOLOCATION_ACCURACY_EXPONENTIAL",
    "GEOLOCATION_ERROR",
    "GEOLOCATION_OSX_SOURCE_IS_MLS",
    "GEOLOCATION_WIN8_SOURCE_IS_MLS",
    "GFX_CRASH",
    "GRADIENT_DURATION",
    "GRADIENT_RETENTION_TIME",
    "INNERWINDOWS_WITH_MUTATION_LISTENERS",
    "IPC_SAME_PROCESS_MESSAGE_COPY_OOM_KB",
    "JS_TELEMETRY_ADDON_EXCEPTIONS",
    "LINK_ICON_SIZES_ATTR_DIMENSION",
    "LINK_ICON_SIZES_ATTR_USAGE",
    "LOCALDOMSTORAGE_CLEAR_BLOCKING_MS",
    "LOCALDOMSTORAGE_GETALLKEYS_BLOCKING_MS",
    "LOCALDOMSTORAGE_GETKEY_BLOCKING_MS",
    "LOCALDOMSTORAGE_GETLENGTH_BLOCKING_MS",
    "LOCALDOMSTORAGE_GETVALUE_BLOCKING_MS",
    "LOCALDOMSTORAGE_PRELOAD_PENDING_ON_FIRST_ACCESS",
    "LOCALDOMSTORAGE_REMOVEKEY_BLOCKING_MS",
    "LOCALDOMSTORAGE_SESSIONONLY_PRELOAD_BLOCKING_MS",
    "LOCALDOMSTORAGE_SETVALUE_BLOCKING_MS",
    "LOCALDOMSTORAGE_SHUTDOWN_DATABASE_MS",
    "LOCALDOMSTORAGE_UNLOAD_BLOCKING_MS",
    "LONG_REFLOW_INTERRUPTIBLE",
    "MAC_INITFONTLIST_TOTAL",
    "MASTER_PASSWORD_ENABLED",
    "MEDIA_WMF_DECODE_ERROR",
    "MIXED_CONTENT_PAGE_LOAD",
    "MIXED_CONTENT_UNBLOCK_COUNTER",
    "MOZ_SQLITE_COOKIES_OPEN_READAHEAD_MS",
    "MOZ_SQLITE_COOKIES_READ_B",
    "MOZ_SQLITE_COOKIES_READ_MAIN_THREAD_MS",
    "MOZ_SQLITE_COOKIES_READ_MS",
    "MOZ_SQLITE_COOKIES_SYNC_MAIN_THREAD_MS",
    "MOZ_SQLITE_COOKIES_SYNC_MS",
    "MOZ_SQLITE_COOKIES_WRITE_B",
    "MOZ_SQLITE_COOKIES_WRITE_MAIN_THREAD_MS",
    "MOZ_SQLITE_COOKIES_WRITE_MS",
    "MOZ_SQLITE_OPEN_MAIN_THREAD_MS",
    "MOZ_SQLITE_OPEN_MS",
    "MOZ_SQLITE_OTHER_READ_B",
    "MOZ_SQLITE_OTHER_READ_MAIN_THREAD_MS",
    "MOZ_SQLITE_OTHER_READ_MS",
    "MOZ_SQLITE_OTHER_SYNC_MAIN_THREAD_MS",
    "MOZ_SQLITE_OTHER_SYNC_MS",
    "MOZ_SQLITE_OTHER_WRITE_B",
    "MOZ_SQLITE_OTHER_WRITE_MAIN_THREAD_MS",
    "MOZ_SQLITE_OTHER_WRITE_MS",
    "MOZ_SQLITE_PLACES_READ_B",
    "MOZ_SQLITE_PLACES_READ_MAIN_THREAD_MS",
    "MOZ_SQLITE_PLACES_READ_MS",
    "MOZ_SQLITE_PLACES_SYNC_MAIN_THREAD_MS",
    "MOZ_SQLITE_PLACES_SYNC_MS",
    "MOZ_SQLITE_PLACES_WRITE_B",
    "MOZ_SQLITE_PLACES_WRITE_MAIN_THREAD_MS",
    "MOZ_SQLITE_PLACES_WRITE_MS",
    "MOZ_SQLITE_TRUNCATE_MAIN_THREAD_MS",
    "MOZ_SQLITE_TRUNCATE_MS",
    "MOZ_SQLITE_WEBAPPS_READ_B",
    "MOZ_SQLITE_WEBAPPS_READ_MAIN_THREAD_MS",
    "MOZ_SQLITE_WEBAPPS_READ_MS",
    "MOZ_SQLITE_WEBAPPS_SYNC_MAIN_THREAD_MS",
    "MOZ_SQLITE_WEBAPPS_SYNC_MS",
    "MOZ_SQLITE_WEBAPPS_WRITE_B",
    "MOZ_SQLITE_WEBAPPS_WRITE_MAIN_THREAD_MS",
    "MOZ_SQLITE_WEBAPPS_WRITE_MS",
    "NEWTAB_PAGE_BLOCKED_SITES_COUNT",
    "NEWTAB_PAGE_ENABLED",
    "NEWTAB_PAGE_ENHANCED",
    "NEWTAB_PAGE_LIFE_SPAN",
    "NEWTAB_PAGE_LIFE_SPAN_SUGGESTED",
    "NEWTAB_PAGE_PINNED_SITES_COUNT",
    "NEWTAB_PAGE_SHOWN",
    "NEWTAB_PAGE_SITE_CLICKED",
    "ONBEFOREUNLOAD_PROMPT_ACTION",
    "ONBEFOREUNLOAD_PROMPT_COUNT",
    "OSFILE_WORKER_LAUNCH_MS",
    "OSFILE_WORKER_READY_MS",
    "OSFILE_WRITEATOMIC_JANK_MS",
    "PAGE_FAULTS_HARD",
    "PAINT_BUILD_DISPLAYLIST_TIME",
    "PAINT_RASTERIZE_TIME",
    "PDF_VIEWER_DOCUMENT_GENERATOR",
    "PDF_VIEWER_DOCUMENT_SIZE_KB",
    "PDF_VIEWER_DOCUMENT_VERSION",
    "PDF_VIEWER_EMBED",
    "PDF_VIEWER_FALLBACK_SHOWN",
    "PDF_VIEWER_FONT_TYPES",
    "PDF_VIEWER_FORM",
    "PDF_VIEWER_PRINT",
    "PDF_VIEWER_STREAM_TYPES",
    "PDF_VIEWER_TIME_TO_VIEW_MS",
    "PDF_VIEWER_USED",
    "PERMISSIONS_SQL_CORRUPTED",
    "PLUGIN_HANG_TIME",
    "PLUGIN_HANG_UI_DONT_ASK",
    "PLUGIN_HANG_UI_RESPONSE_TIME",
    "PLUGIN_HANG_UI_USER_RESPONSE",
    "PLUGIN_SHUTDOWN_MS",
    "PROCESS_CRASH_SUBMIT_ATTEMPT",
    "PROCESS_CRASH_SUBMIT_SUCCESS",
    "PWMGR_BLOCKLIST_NUM_SITES",
    "PWMGR_LOGIN_LAST_USED_DAYS",
    "PWMGR_MANAGE_COPIED_PASSWORD",
    "PWMGR_MANAGE_COPIED_USERNAME",
    "PWMGR_MANAGE_DELETED",
    "PWMGR_MANAGE_DELETED_ALL",
    "PWMGR_MANAGE_OPENED",
    "PWMGR_MANAGE_SORTED",
    "PWMGR_MANAGE_VISIBILITY_TOGGLED",
    "PWMGR_NUM_HTTPAUTH_PASSWORDS",
    "PWMGR_NUM_PASSWORDS_PER_HOSTNAME",
    "PWMGR_NUM_SAVED_PASSWORDS",
    "PWMGR_PASSWORD_INPUT_IN_FORM",
    "PWMGR_PROMPT_REMEMBER_ACTION",
    "PWMGR_PROMPT_UPDATE_ACTION",
    "PWMGR_SAVING_ENABLED",
    "PWMGR_USERNAME_PRESENT",
    "REFRESH_DRIVER_TICK",
    "REQUESTS_OF_ORIGINAL_CONTENT",
    "SAFE_MODE_USAGE",
    "SEARCH_COUNTS",
    "SEARCH_SERVICE_INIT_MS",
    "SERVICE_WORKER_CONTROLLED_DOCUMENTS",
    "SERVICE_WORKER_LIFE_TIME",
    "SERVICE_WORKER_REGISTRATIONS",
    "SERVICE_WORKER_REGISTRATION_LOADING",
    "SERVICE_WORKER_SPAWN_ATTEMPTS",
    "SERVICE_WORKER_UPDATED",
    "SERVICE_WORKER_WAS_SPAWNED",
    "SHOULD_AUTO_DETECT_LANGUAGE",
    "SHOULD_TRANSLATION_UI_APPEAR",
    "SHUTDOWN_OK",
    "SHUTDOWN_PHASE_DURATION_TICKS_PROFILE_BEFORE_CHANGE",
    "SHUTDOWN_PHASE_DURATION_TICKS_PROFILE_CHANGE_TEARDOWN",
    "SHUTDOWN_PHASE_DURATION_TICKS_QUIT_APPLICATION",
    "SHUTDOWN_PHASE_DURATION_TICKS_XPCOM_WILL_SHUTDOWN",
    "SLOW_ADDON_WARNING_RESPONSE_TIME",
    "SLOW_ADDON_WARNING_STATES",
    "STARTUP_CRASH_DETECTED",
    "STARTUP_MEASUREMENT_ERRORS",
    "STUMBLER_OBSERVATIONS_PER_DAY",
    "STUMBLER_TIME_BETWEEN_RECEIVED_LOCATIONS_SEC",
    "STUMBLER_TIME_BETWEEN_START_SEC",
    "STUMBLER_TIME_BETWEEN_UPLOADS_SEC",
    "STUMBLER_UPLOAD_BYTES",
    "STUMBLER_UPLOAD_CELL_COUNT",
    "STUMBLER_UPLOAD_OBSERVATION_COUNT",
    "STUMBLER_UPLOAD_WIFI_AP_COUNT",
    "STUMBLER_VOLUME_BYTES_UPLOADED_PER_SEC",
    "SUBPROCESS_ABNORMAL_ABORT",
    "SUBPROCESS_CRASHES_WITH_DUMP",
    "SYSTEM_FONT_FALLBACK",
    "SYSTEM_FONT_FALLBACK_FIRST",
    "SYSTEM_FONT_FALLBACK_SCRIPT",
    "TAP_TO_LOAD_ENABLED",
    "TAP_TO_LOAD_IMAGE_SIZE",
    "THUNDERBIRD_CONVERSATIONS_TIME_TO_2ND_GLODA_QUERY_MS",
    "THUNDERBIRD_GLODA_SIZE_MB",
    "THUNDERBIRD_INDEXING_RATE_MSG_PER_S",
    "TLS_ERROR_REPORT_UI",
    "TOP_LEVEL_CONTENT_DOCUMENTS_DESTROYED",
    "TOUCH_ENABLED_DEVICE",
    "TRANSLATED_CHARACTERS",
    "TRANSLATED_PAGES",
    "TRANSLATED_PAGES_BY_LANGUAGE",
    "TRANSLATION_OPPORTUNITIES",
    "TRANSLATION_OPPORTUNITIES_BY_LANGUAGE",
    "VIDEO_CANPLAYTYPE_H264_CONSTRAINT_SET_FLAG",
    "VIDEO_CANPLAYTYPE_H264_LEVEL",
    "VIDEO_CANPLAYTYPE_H264_PROFILE",
    "VIDEO_DECODED_H264_SPS_CONSTRAINT_SET_FLAG",
    "VIDEO_DECODED_H264_SPS_LEVEL",
    "VIDEO_DECODED_H264_SPS_PROFILE",
    "VIDEO_EME_PLAY_SUCCESS",
    "VIDEO_H264_SPS_MAX_NUM_REF_FRAMES",
    "WEAVE_COMPLETE_SUCCESS_COUNT",
    "WEAVE_CONFIGURED",
    "WEAVE_CONFIGURED_MASTER_PASSWORD",
    "WEAVE_START_COUNT",
    "WEBCRYPTO_ALG",
    "WEBCRYPTO_EXTRACTABLE_ENC",
    "WEBCRYPTO_EXTRACTABLE_GENERATE",
    "WEBCRYPTO_EXTRACTABLE_IMPORT",
    "WEBCRYPTO_EXTRACTABLE_SIG",
    "WEBCRYPTO_METHOD",
    "WEBCRYPTO_RESOLVED",
    "XMLHTTPREQUEST_ASYNC_OR_SYNC",
    "XUL_CACHE_DISABLED"
  ],
  "bug_numbers": [
    "A11Y_IATABLE_USAGE_FLAG",
    "A11Y_ISIMPLEDOM_USAGE_FLAG",
    "APPLICATION_REPUTATION_COUNT",
    "APPLICATION_REPUTATION_LOCAL",
    "APPLICATION_REPUTATION_SERVER",
    "APPLICATION_REPUTATION_SHOULD_BLOCK",
    "AUDIOSTREAM_FIRST_OPEN_MS",
    "AUDIOSTREAM_LATER_OPEN_MS",
    "AUTO_REJECTED_TRANSLATION_OFFERS",
    "BAD_FALLBACK_FONT",
    "BLOCKLIST_SYNC_FILE_LOAD",
    "BROWSERPROVIDER_XUL_IMPORT_BOOKMARKS",
    "BROWSER_IS_ASSIST_DEFAULT",
    "BROWSER_IS_USER_DEFAULT",
    "BROWSER_IS_USER_DEFAULT_ERROR",
    "BROWSER_SET_DEFAULT_ALWAYS_CHECK",
    "BROWSER_SET_DEFAULT_DIALOG_PROMPT_RAWCOUNT",
    "BROWSER_SET_DEFAULT_ERROR",
    "BROWSER_SET_DEFAULT_RESULT",
    "BR_9_2_1_SUBJECT_ALT_NAMES",
    "BR_9_2_2_SUBJECT_COMMON_NAME",
    "BUCKET_ORDER_ERRORS",
    "CANVAS_2D_USED",
    "CANVAS_WEBGL_USED",
    "CERT_CHAIN_KEY_SIZE_STATUS",
    "CERT_CHAIN_SHA1_POLICY_STATUS",
    "CERT_OCSP_ENABLED",
    "CERT_OCSP_REQUIRED",
    "CERT_PINNING_FAILURES_BY_CA",
    "CERT_PINNING_MOZ_RESULTS",
    "CERT_PINNING_MOZ_RESULTS_BY_HOST",
    "CERT_PINNING_MOZ_TEST_RESULTS",
    "CERT_PINNING_MOZ_TEST_RESULTS_BY_HOST",
    "CERT_PINNING_RESULTS",
    "CERT_PINNING_TEST_RESULTS",
    "CERT_VALIDATION_HTTP_REQUEST_CANCELED_TIME",
    "CERT_VALIDATION_HTTP_REQUEST_FAILED_TIME",
    "CERT_VALIDATION_HTTP_REQUEST_RESULT",
    "CERT_VALIDATION_HTTP_REQUEST_SUCCEEDED_TIME",
    "CERT_VALIDATION_SUCCESS_BY_CA",
    "CHANGES_OF_DETECTED_LANGUAGE",
    "CHANGES_OF_TARGET_LANGUAGE",
    "CHARSET_OVERRIDE_SITUATION",
    "CHARSET_OVERRIDE_USED",
    "CHECK_ADDONS_MODIFIED_MS",
    "CHECK_JAVA_ENABLED",
    "COMPONENTS_SHIM_ACCESSED_BY_CONTENT",
    "COMPOSITE_FRAME_ROUNDTRIP_TIME",
    "COMPOSITE_TIME",
    "CONTENT_DOCUMENTS_DESTROYED",
    "CRASH_STORE_COMPRESSED_BYTES",
    "CYCLE_COLLECTOR",
    "CYCLE_COLLECTOR_ASYNC_SNOW_WHITE_FREEING",
    "CYCLE_COLLECTOR_COLLECTED",
    "CYCLE_COLLECTOR_FINISH_IGC",
    "CYCLE_COLLECTOR_FULL",
    "CYCLE_COLLECTOR_NEED_GC",
    "CYCLE_COLLECTOR_OOM",
    "CYCLE_COLLECTOR_SYNC_SKIPPABLE",
    "CYCLE_COLLECTOR_TIME_BETWEEN",
    "CYCLE_COLLECTOR_VISITED_GCED",
    "CYCLE_COLLECTOR_VISITED_REF_COUNTED",
    "CYCLE_COLLECTOR_WORKER",
    "CYCLE_COLLECTOR_WORKER_COLLECTED",
    "CYCLE_COLLECTOR_WORKER_NEED_GC",
    "CYCLE_COLLECTOR_WORKER_OOM",
    "CYCLE_COLLECTOR_WORKER_VISITED_GCED",
    "CYCLE_COLLECTOR_WORKER_VISITED_REF_COUNTED",
    "D3D11_SYNC_HANDLE_FAILURE",
    "DATABASE_LOCKED_EXCEPTION",
    "DATABASE_SUCCESSFUL_UNLOCK",
    "DATA_STORAGE_ENTRIES",
    "DECODER_INSTANTIATED_IBM866",
    "DECODER_INSTANTIATED_ISO2022JP",
    "DECODER_INSTANTIATED_ISO_8859_5",
    "DECODER_INSTANTIATED_KOI8R",
    "DECODER_INSTANTIATED_KOI8U",
    "DECODER_INSTANTIATED_MACARABIC",
    "DECODER_INSTANTIATED_MACCE",
    "DECODER_INSTANTIATED_MACCROATIAN",
    "DECODER_INSTANTIATED_MACCYRILLIC",
    "DECODER_INSTANTIATED_MACDEVANAGARI",
    "DECODER_INSTANTIATED_MACFARSI",
    "DECODER_INSTANTIATED_MACGREEK",
    "DECODER_INSTANTIATED_MACGUJARATI",
    "DECODER_INSTANTIATED_MACGURMUKHI",
    "DECODER_INSTANTIATED_MACHEBREW",
    "DECODER_INSTANTIATED_MACICELANDIC",
    "DECODER_INSTANTIATED_MACROMANIAN",
    "DECODER_INSTANTIATED_MACTURKISH",
    "DEFECTIVE_PERMISSIONS_SQL_REMOVED",
    "DEFERRED_FINALIZE_ASYNC",
    "DENIED_TRANSLATION_OFFERS",
    "DEVICE_RESET_REASON",
    "DEVTOOLS_ABOUTDEBUGGING_TIME_ACTIVE_SECONDS",
    "DEVTOOLS_ANIMATIONINSPECTOR_TIME_ACTIVE_SECONDS",
    "DEVTOOLS_BROWSERCONSOLE_TIME_ACTIVE_SECONDS",
    "DEVTOOLS_CANVASDEBUGGER_TIME_ACTIVE_SECONDS",
    "DEVTOOLS_COMPUTEDVIEW_TIME_ACTIVE_SECONDS",
    "DEVTOOLS_CUSTOM_TIME_ACTIVE_SECONDS",
    "DEVTOOLS_DEBUGGER_DISPLAY_SOURCE_LOCAL_MS",
    "DEVTOOLS_DEBUGGER_DISPLAY_SOURCE_REMOTE_MS",
    "DEVTOOLS_DEVELOPERTOOLBAR_TIME_ACTIVE_SECONDS",
    "DEVTOOLS_FONTINSPECTOR_TIME_ACTIVE_SECONDS",
    "DEVTOOLS_HEAP_SNAPSHOT_EDGE_COUNT",
    "DEVTOOLS_HEAP_SNAPSHOT_NODE_COUNT",
    "DEVTOOLS_INSPECTOR_TIME_ACTIVE_SECONDS",
    "DEVTOOLS_JSBROWSERDEBUGGER_TIME_ACTIVE_SECONDS",
    "DEVTOOLS_JSDEBUGGER_TIME_ACTIVE_SECONDS",
    "DEVTOOLS_JSPROFILER_TIME_ACTIVE_SECONDS",
    "DEVTOOLS_MEMORY_TIME_ACTIVE_SECONDS",
    "DEVTOOLS_NETMONITOR_TIME_ACTIVE_SECONDS",
    "DEVTOOLS_OPTIONS_TIME_ACTIVE_SECONDS",
    "DEVTOOLS_PAINTFLASHING_TIME_ACTIVE_SECONDS",
    "DEVTOOLS_PERFTOOLS_CONSOLE_RECORDING_COUNT",
    "DEVTOOLS_PERFTOOLS_RECORDING_COUNT",
    "DEVTOOLS_PERFTOOLS_RECORDING_DURATION_MS",
    "DEVTOOLS_PERFTOOLS_RECORDING_EXPORT_FLAG",
    "DEVTOOLS_PERFTOOLS_RECORDING_FEATURES_USED",
    "DEVTOOLS_PERFTOOLS_RECORDING_IMPORT_FLAG",
    "DEVTOOLS_PERFTOOLS_SELECTED_VIEW_MS",
    "DEVTOOLS_READ_HEAP_SNAPSHOT_MS",
    "DEVTOOLS_RULEVIEW_TIME_ACTIVE_SECONDS",
    "DEVTOOLS_SAVE_HEAP_SNAPSHOT_MS",
    "DEVTOOLS_SCRATCHPAD_TIME_ACTIVE_SECONDS",
    "DEVTOOLS_SCREEN_RESOLUTION_ENUMERATED_PER_USER",
    "DEVTOOLS_SHADEREDITOR_TIME_ACTIVE_SECONDS",
    "DEVTOOLS_STORAGE_TIME_ACTIVE_SECONDS",
    "DEVTOOLS_STYLEEDITOR_TIME_ACTIVE_SECONDS",
    "DEVTOOLS_TILT_TIME_ACTIVE_SECONDS",
    "DEVTOOLS_TOOLBOX_TIME_ACTIVE_SECONDS",
    "DEVTOOLS_WEBAUDIOEDITOR_TIME_ACTIVE_SECONDS",
    "DEVTOOLS_WEBCONSOLE_TIME_ACTIVE_SECONDS",
    "DEVTOOLS_WEBIDE_CONNECTED_RUNTIME_APP_TYPE",
    "DEVTOOLS_WEBIDE_CONNECTED_RUNTIME_ID",
    "DEVTOOLS_WEBIDE_CONNECTED_RUNTIME_OS",
    "DEVTOOLS_WEBIDE_CONNECTED_RUNTIME_PLATFORM_VERSION",
    "DEVTOOLS_WEBIDE_CONNECTED_RUNTIME_PROCESSOR",
    "DEVTOOLS_WEBIDE_CONNECTED_RUNTIME_TYPE",
    "DEVTOOLS_WEBIDE_CONNECTED_RUNTIME_VERSION",
    "DEVTOOLS_WEBIDE_CONNECTION_DEBUG_USED",
    "DEVTOOLS_WEBIDE_CONNECTION_PLAY_USED",
    "DEVTOOLS_WEBIDE_CONNECTION_RESULT",
    "DEVTOOLS_WEBIDE_CONNECTION_TIME_SECONDS",
    "DEVTOOLS_WEBIDE_LOCAL_CONNECTION_RESULT",
    "DEVTOOLS_WEBIDE_OTHER_CONNECTION_RESULT",
    "DEVTOOLS_WEBIDE_REMOTE_CONNECTION_RESULT",
    "DEVTOOLS_WEBIDE_SIMULATOR_CONNECTION_RESULT",
    "DEVTOOLS_WEBIDE_TIME_ACTIVE_SECONDS",
    "DEVTOOLS_WEBIDE_USB_CONNECTION_RESULT",
    "DEVTOOLS_WEBIDE_WIFI_CONNECTION_RESULT",
    "DNT_USAGE",
    "DWRITEFONT_DELAYEDINITFONTLIST_COLLECT",
    "DWRITEFONT_DELAYEDINITFONTLIST_COUNT",
    "DWRITEFONT_DELAYEDINITFONTLIST_TOTAL",
    "DWRITEFONT_INIT_PROBLEM",
    "E10S_BLOCKED_FROM_RUNNING",
    "ENABLE_PRIVILEGE_EVER_CALLED",
    "FENNEC_DISTRIBUTION_CODE_CATEGORY",
    "FENNEC_DISTRIBUTION_DOWNLOAD_TIME_MS",
    "FENNEC_DISTRIBUTION_REFERRER_INVALID",
    "FENNEC_GLOBALHISTORY_ADD_MS",
    "FENNEC_GLOBALHISTORY_UPDATE_MS",
    "FENNEC_GLOBALHISTORY_VISITED_BUILD_MS",
    "FENNEC_READING_LIST_COUNT",
    "FENNEC_RESTORING_ACTIVITY",
    "FENNEC_SEARCH_LOADER_TIME_MS",
    "FENNEC_STARTUP_TIME_GECKOREADY",
    "FENNEC_STARTUP_TIME_JAVAUI",
    "FENNEC_SYNC11_MIGRATIONS_COMPLETED",
    "FENNEC_SYNC11_MIGRATIONS_FAILED",
    "FENNEC_SYNC11_MIGRATIONS_SUCCEEDED",
    "FENNEC_SYNC11_MIGRATION_NOTIFICATIONS_OFFERED",
    "FENNEC_SYNC11_MIGRATION_SENTINELS_SEEN",
    "FENNEC_SYNC_NUMBER_OF_SYNCS_COMPLETED",
    "FENNEC_SYNC_NUMBER_OF_SYNCS_FAILED",
    "FENNEC_SYNC_NUMBER_OF_SYNCS_FAILED_BACKOFF",
    "FENNEC_SYNC_NUMBER_OF_SYNCS_STARTED",
    "FENNEC_TABQUEUE_QUEUESIZE",
    "FENNEC_TOPSITES_LOADER_TIME_MS",
    "FENNEC_WAS_KILLED",
    "FIND_PLUGINS",
    "FONTLIST_INITFACENAMELISTS",
    "FONTLIST_INITOTHERFAMILYNAMES",
    "FONTLIST_INITOTHERFAMILYNAMES_NO_DEFERRING",
    "FONT_CACHE_HIT",
    "FORCED_DEVICE_RESET_REASON",
    "FORGET_SKIPPABLE_MAX",
    "FX_BOOKMARKS_TOOLBAR_INIT_MS",
    "FX_BROWSER_FULLSCREEN_USED",
    "FX_GESTURE_COMPRESS_SNAPSHOT_OF_PAGE",
    "FX_GESTURE_INSTALL_SNAPSHOT_OF_PAGE",
    "FX_NEW_WINDOW_MS",
    "FX_PAGE_LOAD_MS",
    "FX_SANITIZE_CACHE",
    "FX_SANITIZE_COOKIES_2",
    "FX_SANITIZE_DOWNLOADS",
    "FX_SANITIZE_FORMDATA",
    "FX_SANITIZE_HISTORY",
    "FX_SANITIZE_OPENWINDOWS",
    "FX_SANITIZE_SESSIONS",
    "FX_SANITIZE_SITESETTINGS",
    "FX_SANITIZE_TOTAL",
    "FX_SESSION_RESTORE_ALL_FILES_CORRUPT",
    "FX_SESSION_RESTORE_AUTO_RESTORE_DURATION_UNTIL_EAGER_TABS_RESTORED_MS",
    "FX_SESSION_RESTORE_COLLECT_ALL_WINDOWS_DATA_MS",
    "FX_SESSION_RESTORE_COLLECT_DATA_MS",
    "FX_SESSION_RESTORE_CORRUPT_FILE",
    "FX_SESSION_RESTORE_FILE_SIZE_BYTES",
    "FX_SESSION_RESTORE_MANUAL_RESTORE_DURATION_UNTIL_EAGER_TABS_RESTORED_MS",
    "FX_SESSION_RESTORE_NUMBER_OF_EAGER_TABS_RESTORED",
    "FX_SESSION_RESTORE_NUMBER_OF_TABS_RESTORED",
    "FX_SESSION_RESTORE_NUMBER_OF_WINDOWS_RESTORED",
    "FX_SESSION_RESTORE_READ_FILE_MS",
    "FX_SESSION_RESTORE_RESTORE_WINDOW_MS",
    "FX_SESSION_RESTORE_SEND_UPDATE_CAUSED_OOM",
    "FX_SESSION_RESTORE_SERIALIZE_DATA_MS",
    "FX_SESSION_RESTORE_STARTUP_INIT_SESSION_MS",
    "FX_SESSION_RESTORE_STARTUP_ONLOAD_INITIAL_WINDOW_MS",
    "FX_SESSION_RESTORE_WRITE_FILE_MS",
    "FX_TABLETMODE_PAGE_LOAD",
    "FX_TAB_CLICK_MS",
    "FX_TAB_SWITCH_SPINNER_VISIBLE_MS",
    "FX_TAB_SWITCH_TOTAL_E10S_MS",
    "FX_TAB_SWITCH_TOTAL_MS",
    "FX_TAB_SWITCH_UPDATE_MS",
    "FX_THUMBNAILS_BG_CAPTURE_CANVAS_DRAW_TIME_MS",
    "FX_THUMBNAILS_BG_CAPTURE_DONE_REASON_2",
    "FX_THUMBNAILS_BG_CAPTURE_PAGE_LOAD_TIME_MS",
    "FX_THUMBNAILS_BG_CAPTURE_QUEUE_TIME_MS",
    "FX_THUMBNAILS_BG_CAPTURE_SERVICE_TIME_MS",
    "FX_THUMBNAILS_BG_QUEUE_SIZE_ON_CAPTURE",
    "FX_THUMBNAILS_CAPTURE_TIME_MS",
    "FX_THUMBNAILS_HIT_OR_MISS",
    "FX_THUMBNAILS_STORE_TIME_MS",
    "FX_TOTAL_TOP_VISITS",
    "FX_TOUCH_USED",
    "GC_ANIMATION_MS",
    "GC_BUDGET_MS",
    "GC_COMPACT_MS",
    "GC_INCREMENTAL_DISABLED",
    "GC_IS_COMPARTMENTAL",
    "GC_MARK_GRAY_MS",
    "GC_MARK_MS",
    "GC_MARK_ROOTS_MS",
    "GC_MINOR_REASON",
    "GC_MINOR_REASON_LONG",
    "GC_MINOR_US",
    "GC_MMU_50",
    "GC_MS",
    "GC_NON_INCREMENTAL",
    "GC_REASON_2",
    "GC_RESET",
    "GC_SCC_SWEEP_MAX_PAUSE_MS",
    "GC_SCC_SWEEP_TOTAL_MS",
    "GC_SLICE_MS",
    "GC_SLOW_PHASE",
    "GC_SWEEP_MS",
    "GDI_INITFONTLIST_TOTAL",
    "GEOLOCATION_ACCURACY_EXPONENTIAL",
    "GEOLOCATION_ERROR",
    "GEOLOCATION_OSX_SOURCE_IS_MLS",
    "GEOLOCATION_WIN8_SOURCE_IS_MLS",
    "GFX_CONTENT_FAILED_TO_ACQUIRE_DEVICE",
    "GFX_CRASH",
    "GHOST_WINDOWS",
    "GRADIENT_DURATION",
    "GRADIENT_RETENTION_TIME",
    "GRAPHICS_DRIVER_STARTUP_TEST",
    "GRAPHICS_SANITY_TEST",
    "GRAPHICS_SANITY_TEST_OS_SNAPSHOT",
    "GRAPHICS_SANITY_TEST_REASON",
    "IMAGE_DECODE_CHUNKS",
    "IMAGE_DECODE_COUNT",
    "IMAGE_DECODE_LATENCY_US",
    "IMAGE_DECODE_ON_DRAW_LATENCY",
    "IMAGE_DECODE_SPEED_GIF",
    "IMAGE_DECODE_SPEED_JPEG",
    "IMAGE_DECODE_SPEED_PNG",
    "IMAGE_DECODE_TIME",
    "INNERWINDOWS_WITH_MUTATION_LISTENERS",
    "IPC_SAME_PROCESS_MESSAGE_COPY_OOM_KB",
    "IPC_TRANSACTION_CANCEL",
    "JS_DEPRECATED_LANGUAGE_EXTENSIONS_IN_ADDONS",
    "JS_DEPRECATED_LANGUAGE_EXTENSIONS_IN_CONTENT",
    "JS_TELEMETRY_ADDON_EXCEPTIONS",
    "LINK_ICON_SIZES_ATTR_DIMENSION",
    "LINK_ICON_SIZES_ATTR_USAGE",
    "LOCALDOMSTORAGE_CLEAR_BLOCKING_MS",
    "LOCALDOMSTORAGE_GETALLKEYS_BLOCKING_MS",
    "LOCALDOMSTORAGE_GETKEY_BLOCKING_MS",
    "LOCALDOMSTORAGE_GETLENGTH_BLOCKING_MS",
    "LOCALDOMSTORAGE_GETVALUE_BLOCKING_MS",
    "LOCALDOMSTORAGE_PRELOAD_PENDING_ON_FIRST_ACCESS",
    "LOCALDOMSTORAGE_REMOVEKEY_BLOCKING_MS",
    "LOCALDOMSTORAGE_SESSIONONLY_PRELOAD_BLOCKING_MS",
    "LOCALDOMSTORAGE_SETVALUE_BLOCKING_MS",
    "LOCALDOMSTORAGE_SHUTDOWN_DATABASE_MS",
    "LOCALDOMSTORAGE_UNLOAD_BLOCKING_MS",
    "LONG_REFLOW_INTERRUPTIBLE",
    "LOW_MEMORY_EVENTS_COMMIT_SPACE",
    "LOW_MEMORY_EVENTS_PHYSICAL",
    "LOW_MEMORY_EVENTS_VIRTUAL",
    "MAC_INITFONTLIST_TOTAL",
    "MASTER_PASSWORD_ENABLED",
    "MEDIA_CODEC_USED",
    "MEDIA_WMF_DECODE_ERROR",
    "MEMORY_FREE_PURGED_PAGES_MS",
    "MEMORY_HEAP_ALLOCATED",
    "MEMORY_HEAP_COMMITTED_UNUSED",
    "MEMORY_IMAGES_CONTENT_USED_UNCOMPRESSED",
    "MEMORY_JS_COMPARTMENTS_SYSTEM",
    "MEMORY_JS_COMPARTMENTS_USER",
    "MEMORY_JS_GC_HEAP",
    "MEMORY_STORAGE_SQLITE",
    "MEMORY_VSIZE",
    "MEMORY_VSIZE_MAX_CONTIGUOUS",
    "MIXED_CONTENT_PAGE_LOAD",
    "MIXED_CONTENT_UNBLOCK_COUNTER",
    "MOZ_SQLITE_COOKIES_OPEN_READAHEAD_MS",
    "MOZ_SQLITE_COOKIES_READ_B",
    "MOZ_SQLITE_COOKIES_READ_MAIN_THREAD_MS",
    "MOZ_SQLITE_COOKIES_READ_MS",
    "MOZ_SQLITE_COOKIES_SYNC_MAIN_THREAD_MS",
    "MOZ_SQLITE_COOKIES_SYNC_MS",
    "MOZ_SQLITE_COOKIES_WRITE_B",
    "MOZ_SQLITE_COOKIES_WRITE_MAIN_THREAD_MS",
    "MOZ_SQLITE_COOKIES_WRITE_MS",
    "MOZ_SQLITE_OPEN_MAIN_THREAD_MS",
    "MOZ_SQLITE_OPEN_MS",
    "MOZ_SQLITE_OTHER_READ_B",
    "MOZ_SQLITE_OTHER_READ_MAIN_THREAD_MS",
    "MOZ_SQLITE_OTHER_READ_MS",
    "MOZ_SQLITE_OTHER_SYNC_MAIN_THREAD_MS",
    "MOZ_SQLITE_OTHER_SYNC_MS",
    "MOZ_SQLITE_OTHER_WRITE_B",
    "MOZ_SQLITE_OTHER_WRITE_MAIN_THREAD_MS",
    "MOZ_SQLITE_OTHER_WRITE_MS",
    "MOZ_SQLITE_PLACES_READ_B",
    "MOZ_SQLITE_PLACES_READ_MAIN_THREAD_MS",
    "MOZ_SQLITE_PLACES_READ_MS",
    "MOZ_SQLITE_PLACES_SYNC_MAIN_THREAD_MS",
    "MOZ_SQLITE_PLACES_SYNC_MS",
    "MOZ_SQLITE_PLACES_WRITE_B",
    "MOZ_SQLITE_PLACES_WRITE_MAIN_THREAD_MS",
    "MOZ_SQLITE_PLACES_WRITE_MS",
    "MOZ_SQLITE_TRUNCATE_MAIN_THREAD_MS",
    "MOZ_SQLITE_TRUNCATE_MS",
    "MOZ_SQLITE_WEBAPPS_READ_B",
    "MOZ_SQLITE_WEBAPPS_READ_MAIN_THREAD_MS",
    "MOZ_SQLITE_WEBAPPS_READ_MS",
    "MOZ_SQLITE_WEBAPPS_SYNC_MAIN_THREAD_MS",
    "MOZ_SQLITE_WEBAPPS_SYNC_MS",
    "MOZ_SQLITE_WEBAPPS_WRITE_B",
    "MOZ_SQLITE_WEBAPPS_WRITE_MAIN_THREAD_MS",
    "MOZ_SQLITE_WEBAPPS_WRITE_MS",
    "MOZ_STORAGE_ASYNC_REQUESTS_MS",
    "MOZ_STORAGE_ASYNC_REQUESTS_SUCCESS",
    "NEWTAB_PAGE_BLOCKED_SITES_COUNT",
    "NEWTAB_PAGE_ENABLED",
    "NEWTAB_PAGE_ENHANCED",
    "NEWTAB_PAGE_LIFE_SPAN",
    "NEWTAB_PAGE_LIFE_SPAN_SUGGESTED",
    "NEWTAB_PAGE_PINNED_SITES_COUNT",
    "NEWTAB_PAGE_SHOWN",
    "NEWTAB_PAGE_SITE_CLICKED",
    "ONBEFOREUNLOAD_PROMPT_ACTION",
    "ONBEFOREUNLOAD_PROMPT_COUNT",
    "OSFILE_WORKER_LAUNCH_MS",
    "OSFILE_WORKER_READY_MS",
    "OSFILE_WRITEATOMIC_JANK_MS",
    "PAGE_FAULTS_HARD",
    "PAINT_BUILD_DISPLAYLIST_TIME",
    "PAINT_RASTERIZE_TIME",
    "PDF_VIEWER_DOCUMENT_GENERATOR",
    "PDF_VIEWER_DOCUMENT_SIZE_KB",
    "PDF_VIEWER_DOCUMENT_VERSION",
    "PDF_VIEWER_EMBED",
    "PDF_VIEWER_FALLBACK_SHOWN",
    "PDF_VIEWER_FONT_TYPES",
    "PDF_VIEWER_FORM",
    "PDF_VIEWER_PRINT",
    "PDF_VIEWER_STREAM_TYPES",
    "PDF_VIEWER_TIME_TO_VIEW_MS",
    "PDF_VIEWER_USED",
    "PERF_MONITORING_TEST_CPU_RESCHEDULING_PROPORTION_MOVED",
    "PERMISSIONS_MIGRATION_7_ERROR",
    "PERMISSIONS_REMIGRATION_COMPARISON",
    "PERMISSIONS_SQL_CORRUPTED",
    "PLUGIN_HANG_NOTICE_COUNT",
    "PLUGIN_HANG_TIME",
    "PLUGIN_HANG_UI_DONT_ASK",
    "PLUGIN_HANG_UI_RESPONSE_TIME",
    "PLUGIN_HANG_UI_USER_RESPONSE",
    "PLUGIN_LOAD_METADATA",
    "PLUGIN_SHUTDOWN_MS",
    "PROCESS_CRASH_SUBMIT_ATTEMPT",
    "PROCESS_CRASH_SUBMIT_SUCCESS",
    "PUSH_API_NOTIFY",
    "PWMGR_BLOCKLIST_NUM_SITES",
    "PWMGR_LOGIN_LAST_USED_DAYS",
    "PWMGR_MANAGE_COPIED_PASSWORD",
    "PWMGR_MANAGE_COPIED_USERNAME",
    "PWMGR_MANAGE_DELETED",
    "PWMGR_MANAGE_DELETED_ALL",
    "PWMGR_MANAGE_OPENED",
    "PWMGR_MANAGE_SORTED",
    "PWMGR_MANAGE_VISIBILITY_TOGGLED",
    "PWMGR_NUM_HTTPAUTH_PASSWORDS",
    "PWMGR_NUM_PASSWORDS_PER_HOSTNAME",
    "PWMGR_NUM_SAVED_PASSWORDS",
    "PWMGR_PASSWORD_INPUT_IN_FORM",
    "PWMGR_PROMPT_REMEMBER_ACTION",
    "PWMGR_PROMPT_UPDATE_ACTION",
    "PWMGR_SAVING_ENABLED",
    "PWMGR_USERNAME_PRESENT",
    "RANGE_CHECKSUM_ERRORS",
    "READER_MODE_DOWNLOAD_RESULT",
    "READER_MODE_PARSE_RESULT",
    "REFRESH_DRIVER_TICK",
    "REQUESTS_OF_ORIGINAL_CONTENT",
    "SAFE_MODE_USAGE",
    "SEARCH_COUNTS",
    "SEARCH_SERVICE_COUNTRY_FETCH_CAUSED_SYNC_INIT",
    "SEARCH_SERVICE_COUNTRY_FETCH_RESULT",
    "SEARCH_SERVICE_COUNTRY_FETCH_TIME_MS",
    "SEARCH_SERVICE_COUNTRY_TIMEOUT",
    "SEARCH_SERVICE_INIT_MS",
    "SEARCH_SERVICE_INIT_SYNC",
    "SEARCH_SERVICE_NONUS_COUNTRY_MISMATCHED_PLATFORM_OSX",
    "SEARCH_SERVICE_NONUS_COUNTRY_MISMATCHED_PLATFORM_WIN",
    "SEARCH_SERVICE_US_COUNTRY_MISMATCHED_PLATFORM_OSX",
    "SEARCH_SERVICE_US_COUNTRY_MISMATCHED_PLATFORM_WIN",
    "SEARCH_SERVICE_US_COUNTRY_MISMATCHED_TIMEZONE",
    "SEARCH_SERVICE_US_TIMEZONE_MISMATCHED_COUNTRY",
    "SERVICE_WORKER_CONTROLLED_DOCUMENTS",
    "SERVICE_WORKER_LIFE_TIME",
    "SERVICE_WORKER_REGISTRATIONS",
    "SERVICE_WORKER_REGISTRATION_LOADING",
    "SERVICE_WORKER_SPAWN_ATTEMPTS",
    "SERVICE_WORKER_UPDATED",
    "SERVICE_WORKER_WAS_SPAWNED",
    "SHOULD_AUTO_DETECT_LANGUAGE",
    "SHOULD_TRANSLATION_UI_APPEAR",
    "SHUTDOWN_OK",
    "SHUTDOWN_PHASE_DURATION_TICKS_PROFILE_BEFORE_CHANGE",
    "SHUTDOWN_PHASE_DURATION_TICKS_PROFILE_CHANGE_TEARDOWN",
    "SHUTDOWN_PHASE_DURATION_TICKS_QUIT_APPLICATION",
    "SHUTDOWN_PHASE_DURATION_TICKS_XPCOM_WILL_SHUTDOWN",
    "SLOW_ADDON_WARNING_RESPONSE_TIME",
    "SLOW_ADDON_WARNING_STATES",
    "SLOW_SCRIPT_NOTICE_COUNT",
    "SSL_AUTH_ALGORITHM_FULL",
    "SSL_AUTH_ECDSA_CURVE_FULL",
    "SSL_AUTH_RSA_KEY_SIZE_FULL",
    "SSL_BYTES_BEFORE_CERT_CALLBACK",
    "SSL_CERT_ERROR_OVERRIDES",
    "SSL_CERT_VERIFICATION_ERRORS",
    "SSL_CIPHER_SUITE_FULL",
    "SSL_CIPHER_SUITE_RESUMED",
    "SSL_HANDSHAKE_TYPE",
    "SSL_INITIAL_FAILED_CERT_VALIDATION_TIME_MOZILLAPKIX",
    "SSL_KEA_DHE_KEY_SIZE_FULL",
    "SSL_KEA_ECDHE_CURVE_FULL",
    "SSL_KEA_RSA_KEY_SIZE_FULL",
    "SSL_KEY_EXCHANGE_ALGORITHM_FULL",
    "SSL_KEY_EXCHANGE_ALGORITHM_RESUMED",
    "SSL_NPN_TYPE",
    "SSL_OBSERVED_END_ENTITY_CERTIFICATE_LIFETIME",
    "SSL_OCSP_MAY_FETCH",
    "SSL_OCSP_STAPLING",
    "SSL_PERMANENT_CERT_ERROR_OVERRIDES",
    "SSL_REASONS_FOR_NOT_FALSE_STARTING",
    "SSL_SERVER_AUTH_EKU",
    "SSL_SUCCESFUL_CERT_VALIDATION_TIME_MOZILLAPKIX",
    "SSL_SYMMETRIC_CIPHER_FULL",
    "SSL_SYMMETRIC_CIPHER_RESUMED",
    "SSL_TLS10_INTOLERANCE_REASON_POST",
    "SSL_TLS10_INTOLERANCE_REASON_PRE",
    "SSL_TLS11_INTOLERANCE_REASON_POST",
    "SSL_TLS11_INTOLERANCE_REASON_PRE",
    "SSL_TLS12_INTOLERANCE_REASON_POST",
    "SSL_TLS12_INTOLERANCE_REASON_PRE",
    "SSL_VERSION_FALLBACK_INAPPROPRIATE",
    "STARTUP_CRASH_DETECTED",
    "STARTUP_MEASUREMENT_ERRORS",
    "STUMBLER_OBSERVATIONS_PER_DAY",
    "STUMBLER_TIME_BETWEEN_RECEIVED_LOCATIONS_SEC",
    "STUMBLER_TIME_BETWEEN_START_SEC",
    "STUMBLER_TIME_BETWEEN_UPLOADS_SEC",
    "STUMBLER_UPLOAD_BYTES",
    "STUMBLER_UPLOAD_CELL_COUNT",
    "STUMBLER_UPLOAD_OBSERVATION_COUNT",
    "STUMBLER_UPLOAD_WIFI_AP_COUNT",
    "STUMBLER_VOLUME_BYTES_UPLOADED_PER_SEC",
    "SUBJECT_PRINCIPAL_ACCESSED_WITHOUT_SCRIPT_ON_STACK",
    "SUBPROCESS_ABNORMAL_ABORT",
    "SUBPROCESS_CRASHES_WITH_DUMP",
    "SYSTEM_FONT_FALLBACK",
    "SYSTEM_FONT_FALLBACK_FIRST",
    "SYSTEM_FONT_FALLBACK_SCRIPT",
    "TELEMETRY_COMPRESS",
    "TELEMETRY_DISCARDED_ARCHIVED_PINGS_SIZE_MB",
    "TELEMETRY_DISCARDED_CONTENT_PINGS_COUNT",
    "TELEMETRY_DISCARDED_PENDING_PINGS_SIZE_MB",
    "TELEMETRY_DISCARDED_SEND_PINGS_SIZE_MB",
    "TELEMETRY_INVALID_PING_TYPE_SUBMITTED",
    "TELEMETRY_MEMORY_REPORTER_MS",
    "TELEMETRY_PENDING_CHECKING_OVER_QUOTA_MS",
    "TELEMETRY_PENDING_EVICTING_OVER_QUOTA_MS",
    "TELEMETRY_PENDING_LOAD_FAILURE_PARSE",
    "TELEMETRY_PENDING_LOAD_FAILURE_READ",
    "TELEMETRY_PENDING_PINGS_AGE",
    "TELEMETRY_PENDING_PINGS_EVICTED_OVER_QUOTA",
    "TELEMETRY_PENDING_PINGS_SIZE_MB",
    "TELEMETRY_PING_EVICTED_FOR_SERVER_ERRORS",
    "TELEMETRY_PING_SIZE_EXCEEDED_ARCHIVED",
    "TELEMETRY_PING_SIZE_EXCEEDED_PENDING",
    "TELEMETRY_PING_SIZE_EXCEEDED_SEND",
    "TELEMETRY_SESSIONDATA_FAILED_LOAD",
    "TELEMETRY_SESSIONDATA_FAILED_PARSE",
    "TELEMETRY_SESSIONDATA_FAILED_SAVE",
    "TELEMETRY_SESSIONDATA_FAILED_VALIDATION",
    "TELEMETRY_STRINGIFY",
    "TELEMETRY_SUCCESS",
    "TELEMETRY_TEST_COUNT",
    "TELEMETRY_TEST_COUNT_INIT_NO_RECORD",
    "TELEMETRY_TEST_EXPIRED",
    "TELEMETRY_TEST_FLAG",
    "TELEMETRY_TEST_KEYED_COUNT",
    "TELEMETRY_TEST_KEYED_COUNT_INIT_NO_RECORD",
    "TELEMETRY_TEST_KEYED_FLAG",
    "TELEMETRY_TEST_KEYED_RELEASE_OPTIN",
    "TELEMETRY_TEST_KEYED_RELEASE_OPTOUT",
    "TELEMETRY_TEST_RELEASE_OPTIN",
    "TELEMETRY_TEST_RELEASE_OPTOUT",
    "THUNDERBIRD_CONVERSATIONS_TIME_TO_2ND_GLODA_QUERY_MS",
    "THUNDERBIRD_GLODA_SIZE_MB",
    "THUNDERBIRD_INDEXING_RATE_MSG_PER_S",
    "TLS_ERROR_REPORT_UI",
    "TOP_LEVEL_CONTENT_DOCUMENTS_DESTROYED",
    "TOTAL_CONTENT_PAGE_LOAD_TIME",
    "TOTAL_COUNT_HIGH_ERRORS",
    "TOTAL_COUNT_LOW_ERRORS",
    "TOUCH_ENABLED_DEVICE",
    "TRANSLATED_CHARACTERS",
    "TRANSLATED_PAGES",
    "TRANSLATED_PAGES_BY_LANGUAGE",
    "TRANSLATION_OPPORTUNITIES",
    "TRANSLATION_OPPORTUNITIES_BY_LANGUAGE",
    "UPDATE_CANNOT_STAGE_EXTERNAL",
    "UPDATE_CANNOT_STAGE_NOTIFY",
    "UPDATE_CHECK_CODE_EXTERNAL",
    "UPDATE_CHECK_CODE_NOTIFY",
    "UPDATE_CHECK_EXTENDED_ERROR_EXTERNAL",
    "UPDATE_CHECK_EXTENDED_ERROR_NOTIFY",
    "UPDATE_CHECK_NO_UPDATE_EXTERNAL",
    "UPDATE_CHECK_NO_UPDATE_NOTIFY",
    "UPDATE_DOWNLOAD_CODE_COMPLETE",
    "UPDATE_DOWNLOAD_CODE_PARTIAL",
    "UPDATE_INVALID_LASTUPDATETIME_EXTERNAL",
    "UPDATE_INVALID_LASTUPDATETIME_NOTIFY",
    "UPDATE_LAST_NOTIFY_INTERVAL_DAYS_EXTERNAL",
    "UPDATE_LAST_NOTIFY_INTERVAL_DAYS_NOTIFY",
    "UPDATE_NOT_PREF_UPDATE_AUTO_EXTERNAL",
    "UPDATE_NOT_PREF_UPDATE_AUTO_NOTIFY",
    "UPDATE_NOT_PREF_UPDATE_ENABLED_EXTERNAL",
    "UPDATE_NOT_PREF_UPDATE_ENABLED_NOTIFY",
    "UPDATE_NOT_PREF_UPDATE_SERVICE_ENABLED_EXTERNAL",
    "UPDATE_NOT_PREF_UPDATE_SERVICE_ENABLED_NOTIFY",
    "UPDATE_NOT_PREF_UPDATE_STAGING_ENABLED_EXTERNAL",
    "UPDATE_NOT_PREF_UPDATE_STAGING_ENABLED_NOTIFY",
    "UPDATE_PING_COUNT_EXTERNAL",
    "UPDATE_PING_COUNT_NOTIFY",
    "UPDATE_PREF_SERVICE_ERRORS_EXTERNAL",
    "UPDATE_PREF_SERVICE_ERRORS_NOTIFY",
    "UPDATE_PREF_UPDATE_CANCELATIONS_EXTERNAL",
    "UPDATE_PREF_UPDATE_CANCELATIONS_NOTIFY",
    "UPDATE_SERVICE_INSTALLED_EXTERNAL",
    "UPDATE_SERVICE_INSTALLED_NOTIFY",
    "UPDATE_SERVICE_MANUALLY_UNINSTALLED_EXTERNAL",
    "UPDATE_SERVICE_MANUALLY_UNINSTALLED_NOTIFY",
    "UPDATE_STATE_CODE_COMPLETE_STAGE",
    "UPDATE_STATE_CODE_COMPLETE_STARTUP",
    "UPDATE_STATE_CODE_PARTIAL_STAGE",
    "UPDATE_STATE_CODE_PARTIAL_STARTUP",
    "UPDATE_STATE_CODE_UNKNOWN_STAGE",
    "UPDATE_STATE_CODE_UNKNOWN_STARTUP",
    "UPDATE_STATUS_ERROR_CODE_COMPLETE_STAGE",
    "UPDATE_STATUS_ERROR_CODE_COMPLETE_STARTUP",
    "UPDATE_STATUS_ERROR_CODE_PARTIAL_STAGE",
    "UPDATE_STATUS_ERROR_CODE_PARTIAL_STARTUP",
    "UPDATE_STATUS_ERROR_CODE_UNKNOWN_STAGE",
    "UPDATE_STATUS_ERROR_CODE_UNKNOWN_STARTUP",
    "UPDATE_UNABLE_TO_APPLY_EXTERNAL",
    "UPDATE_UNABLE_TO_APPLY_NOTIFY",
    "UPDATE_WIZ_LAST_PAGE_CODE",
    "URLCLASSIFIER_CL_CHECK_TIME",
    "URLCLASSIFIER_LC_COMPLETIONS",
    "URLCLASSIFIER_LC_PREFIXES",
    "URLCLASSIFIER_PS_CONSTRUCT_TIME",
    "URLCLASSIFIER_PS_FALLOCATE_TIME",
    "URLCLASSIFIER_PS_FILELOAD_TIME",
    "VIDEO_CANPLAYTYPE_H264_CONSTRAINT_SET_FLAG",
    "VIDEO_CANPLAYTYPE_H264_LEVEL",
    "VIDEO_CANPLAYTYPE_H264_PROFILE",
    "VIDEO_CAN_CREATE_AAC_DECODER",
    "VIDEO_CAN_CREATE_H264_DECODER",
    "VIDEO_DECODED_H264_SPS_CONSTRAINT_SET_FLAG",
    "VIDEO_DECODED_H264_SPS_LEVEL",
    "VIDEO_DECODED_H264_SPS_PROFILE",
    "VIDEO_EME_PLAY_SUCCESS",
    "VIDEO_EME_REQUEST_FAILURE_LATENCY_MS",
    "VIDEO_EME_REQUEST_SUCCESS_LATENCY_MS",
    "VIDEO_H264_SPS_MAX_NUM_REF_FRAMES",
    "VIEW_SOURCE_EXTERNAL_RESULT_BOOLEAN",
    "VIEW_SOURCE_IN_BROWSER_OPENED_BOOLEAN",
    "VIEW_SOURCE_IN_WINDOW_OPENED_BOOLEAN",
    "WEAVE_COMPLETE_SUCCESS_COUNT",
    "WEAVE_CONFIGURED",
    "WEAVE_CONFIGURED_MASTER_PASSWORD",
    "WEAVE_START_COUNT",
    "WEBCRYPTO_ALG",
    "WEBCRYPTO_EXTRACTABLE_ENC",
    "WEBCRYPTO_EXTRACTABLE_GENERATE",
    "WEBCRYPTO_EXTRACTABLE_IMPORT",
    "WEBCRYPTO_EXTRACTABLE_SIG",
    "WEBCRYPTO_METHOD",
    "WEBCRYPTO_RESOLVED",
    "WEBFONT_COMPRESSION_WOFF",
    "WEBFONT_COMPRESSION_WOFF2",
    "WEBFONT_DOWNLOAD_TIME",
    "WEBFONT_DOWNLOAD_TIME_AFTER_START",
    "WEBFONT_FONTTYPE",
    "WEBFONT_PER_PAGE",
    "WEBFONT_SIZE",
    "WEBFONT_SIZE_PER_PAGE",
    "WEBFONT_SRCTYPE",
    "WEBRTC_AUDIO_QUALITY_INBOUND_BANDWIDTH_KBITS",
    "WEBRTC_AUDIO_QUALITY_INBOUND_JITTER",
    "WEBRTC_AUDIO_QUALITY_INBOUND_PACKETLOSS_RATE",
    "WEBRTC_AUDIO_QUALITY_OUTBOUND_BANDWIDTH_KBITS",
    "WEBRTC_AUDIO_QUALITY_OUTBOUND_JITTER",
    "WEBRTC_AUDIO_QUALITY_OUTBOUND_PACKETLOSS_RATE",
    "WEBRTC_AUDIO_QUALITY_OUTBOUND_RTT",
    "WEBRTC_AVSYNC_WHEN_AUDIO_LAGS_VIDEO_MS",
    "WEBRTC_AVSYNC_WHEN_VIDEO_LAGS_AUDIO_MS",
    "WEBRTC_CALL_DURATION",
    "WEBRTC_CALL_TYPE",
    "WEBRTC_DATACHANNEL_NEGOTIATED",
    "WEBRTC_GET_USER_MEDIA_SECURE_ORIGIN",
    "WEBRTC_GET_USER_MEDIA_TYPE",
    "WEBRTC_LOAD_STATE_NORMAL",
    "WEBRTC_LOAD_STATE_NORMAL_SHORT",
    "WEBRTC_LOAD_STATE_RELAXED",
    "WEBRTC_LOAD_STATE_RELAXED_SHORT",
    "WEBRTC_LOAD_STATE_STRESSED",
    "WEBRTC_LOAD_STATE_STRESSED_SHORT",
    "WEBRTC_MAX_AUDIO_RECEIVE_TRACK",
    "WEBRTC_MAX_AUDIO_SEND_TRACK",
    "WEBRTC_MAX_VIDEO_RECEIVE_TRACK",
    "WEBRTC_MAX_VIDEO_SEND_TRACK",
    "WEBRTC_RENEGOTIATIONS",
    "WEBRTC_VIDEO_DECODER_BITRATE_AVG_PER_CALL_KBPS",
    "WEBRTC_VIDEO_DECODER_BITRATE_STD_DEV_PER_CALL_KBPS",
    "WEBRTC_VIDEO_DECODER_DISCARDED_PACKETS_PER_CALL_PPM",
    "WEBRTC_VIDEO_DECODER_FRAMERATE_10X_STD_DEV_PER_CALL",
    "WEBRTC_VIDEO_DECODER_FRAMERATE_AVG_PER_CALL",
    "WEBRTC_VIDEO_DECODE_ERROR_TIME_PERMILLE",
    "WEBRTC_VIDEO_ENCODER_BITRATE_AVG_PER_CALL_KBPS",
    "WEBRTC_VIDEO_ENCODER_BITRATE_STD_DEV_PER_CALL_KBPS",
    "WEBRTC_VIDEO_ENCODER_DROPPED_FRAMES_PER_CALL_FPM",
    "WEBRTC_VIDEO_ENCODER_FRAMERATE_10X_STD_DEV_PER_CALL",
    "WEBRTC_VIDEO_ENCODER_FRAMERATE_AVG_PER_CALL",
    "WEBRTC_VIDEO_ERROR_RECOVERY_MS",
    "WEBRTC_VIDEO_QUALITY_INBOUND_BANDWIDTH_KBITS",
    "WEBRTC_VIDEO_QUALITY_INBOUND_JITTER",
    "WEBRTC_VIDEO_QUALITY_INBOUND_PACKETLOSS_RATE",
    "WEBRTC_VIDEO_QUALITY_OUTBOUND_BANDWIDTH_KBITS",
    "WEBRTC_VIDEO_QUALITY_OUTBOUND_JITTER",
    "WEBRTC_VIDEO_QUALITY_OUTBOUND_PACKETLOSS_RATE",
    "WEBRTC_VIDEO_QUALITY_OUTBOUND_RTT",
    "WEBRTC_VIDEO_RECOVERY_AFTER_ERROR_PER_MIN",
    "WEBRTC_VIDEO_RECOVERY_BEFORE_ERROR_PER_MIN",
    "XMLHTTPREQUEST_ASYNC_OR_SYNC",
    "XUL_CACHE_DISABLED"
  ],
  "n_buckets": [
    "MEMORY_JS_GC_HEAP",
    "MEMORY_HEAP_ALLOCATED",
    "SYSTEM_FONT_FALLBACK_SCRIPT",
    "SSL_TIME_UNTIL_READY",
    "SSL_TIME_UNTIL_HANDSHAKE_FINISHED",
    "CERT_VALIDATION_HTTP_REQUEST_CANCELED_TIME",
    "CERT_VALIDATION_HTTP_REQUEST_SUCCEEDED_TIME",
    "CERT_VALIDATION_HTTP_REQUEST_FAILED_TIME",
    "SSL_OBSERVED_END_ENTITY_CERTIFICATE_LIFETIME",
    "UPDATE_PREF_UPDATE_CANCELATIONS_EXTERNAL",
    "UPDATE_PREF_UPDATE_CANCELATIONS_NOTIFY",
    "UPDATE_STATUS_ERROR_CODE_COMPLETE_STARTUP",
    "UPDATE_STATUS_ERROR_CODE_PARTIAL_STARTUP",
    "UPDATE_STATUS_ERROR_CODE_UNKNOWN_STARTUP",
    "UPDATE_STATUS_ERROR_CODE_COMPLETE_STAGE",
    "UPDATE_STATUS_ERROR_CODE_PARTIAL_STAGE",
    "UPDATE_STATUS_ERROR_CODE_UNKNOWN_STAGE",
    "SECURITY_UI",
    "CRASH_STORE_COMPRESSED_BYTES",
    "MEDIA_WMF_DECODE_ERROR",
    "VIDEO_CANPLAYTYPE_H264_CONSTRAINT_SET_FLAG",
    "VIDEO_CANPLAYTYPE_H264_PROFILE",
    "VIDEO_DECODED_H264_SPS_CONSTRAINT_SET_FLAG",
    "VIDEO_DECODED_H264_SPS_PROFILE",
    "WEBRTC_AVSYNC_WHEN_AUDIO_LAGS_VIDEO_MS",
    "WEBRTC_AVSYNC_WHEN_VIDEO_LAGS_AUDIO_MS",
    "WEBRTC_VIDEO_QUALITY_INBOUND_BANDWIDTH_KBITS",
    "WEBRTC_AUDIO_QUALITY_INBOUND_BANDWIDTH_KBITS",
    "WEBRTC_VIDEO_QUALITY_OUTBOUND_BANDWIDTH_KBITS",
    "WEBRTC_AUDIO_QUALITY_OUTBOUND_BANDWIDTH_KBITS",
    "WEBRTC_AUDIO_QUALITY_INBOUND_JITTER",
    "WEBRTC_VIDEO_QUALITY_OUTBOUND_JITTER",
    "WEBRTC_AUDIO_QUALITY_OUTBOUND_JITTER",
    "WEBRTC_VIDEO_ERROR_RECOVERY_MS",
    "WEBRTC_VIDEO_RECOVERY_BEFORE_ERROR_PER_MIN",
    "WEBRTC_VIDEO_RECOVERY_AFTER_ERROR_PER_MIN",
    "WEBRTC_VIDEO_QUALITY_OUTBOUND_RTT",
    "WEBRTC_AUDIO_QUALITY_OUTBOUND_RTT",
    "WEBRTC_CALL_DURATION",
    "DEVTOOLS_DEBUGGER_DISPLAY_SOURCE_LOCAL_MS",
    "DEVTOOLS_DEBUGGER_DISPLAY_SOURCE_REMOTE_MS",
    "DEVTOOLS_SAVE_HEAP_SNAPSHOT_MS",
    "DEVTOOLS_READ_HEAP_SNAPSHOT_MS",
    "DEVTOOLS_HEAP_SNAPSHOT_NODE_COUNT",
    "DEVTOOLS_HEAP_SNAPSHOT_EDGE_COUNT",
    "SSL_CIPHER_SUITE_FULL",
    "SSL_CIPHER_SUITE_RESUMED",
    "SSL_HANDSHAKE_RESULT",
    "SSL_REASONS_FOR_NOT_FALSE_STARTING",
    "SSL_CERT_VERIFICATION_ERRORS",
    "CERT_VALIDATION_SUCCESS_BY_CA",
    "CERT_PINNING_FAILURES_BY_CA",
    "CERT_PINNING_MOZ_RESULTS_BY_HOST",
    "CERT_PINNING_MOZ_TEST_RESULTS_BY_HOST",
    "GFX_CRASH",
    "GC_REASON_2",
    "GC_MINOR_REASON",
    "GC_MINOR_REASON_LONG",
    "SSL_CT_POLICY_COMPLIANT_CONNECTIONS_BY_CA",
    "SSL_CT_POLICY_NON_COMPLIANT_CONNECTIONS_BY_CA"
  ],
  "expiry_default": [
    "A11Y_CONSUMERS",
    "IDLE_NOTIFY_IDLE_MS",
    "OSFILE_WORKER_LAUNCH_MS",
    "GEOLOCATION_OSX_SOURCE_IS_MLS",
    "TRANSLATION_OPPORTUNITIES_BY_LANGUAGE",
    "FX_THUMBNAILS_BG_CAPTURE_DONE_REASON_2",
    "TRANSLATED_PAGES",
    "FX_SESSION_RESTORE_SEND_UPDATE_CAUSED_OOM",
    "SSL_PERMANENT_CERT_ERROR_OVERRIDES",
    "FX_THUMBNAILS_BG_QUEUE_SIZE_ON_CAPTURE",
    "AUTO_REJECTED_TRANSLATION_OFFERS",
    "TRANSLATED_CHARACTERS",
    "WEAVE_CONFIGURED",
    "NEWTAB_PAGE_ENABLED",
    "GRADIENT_DURATION",
    "MOZ_SQLITE_OPEN_MS",
    "SHOULD_TRANSLATION_UI_APPEAR",
    "NEWTAB_PAGE_LIFE_SPAN",
    "FX_TOTAL_TOP_VISITS",
    "FX_SESSION_RESTORE_NUMBER_OF_EAGER_TABS_RESTORED",
    "FX_THUMBNAILS_BG_CAPTURE_QUEUE_TIME_MS",
    "NEWTAB_PAGE_PINNED_SITES_COUNT",
    "WEAVE_COMPLETE_SUCCESS_COUNT",
    "OSFILE_WRITEATOMIC_JANK_MS",
    "STARTUP_MEASUREMENT_ERRORS",
    "CERT_CHAIN_KEY_SIZE_STATUS",
    "CHANGES_OF_TARGET_LANGUAGE",
    "FX_NEW_WINDOW_MS",
    "PDF_VIEWER_TIME_TO_VIEW_MS",
    "SSL_OCSP_MAY_FETCH",
    "MOZ_SQLITE_OTHER_READ_B",
    "CHECK_JAVA_ENABLED",
    "TRANSLATION_OPPORTUNITIES",
    "NEWTAB_PAGE_BLOCKED_SITES_COUNT",
    "FX_SESSION_RESTORE_NUMBER_OF_TABS_RESTORED",
    "WEAVE_START_COUNT",
    "FX_SESSION_RESTORE_RESTORE_WINDOW_MS",
    "NEWTAB_PAGE_LIFE_SPAN_SUGGESTED",
    "FX_SESSION_RESTORE_CORRUPT_FILE",
    "FX_TAB_CLICK_MS",
    "LOCALDOMSTORAGE_GETVALUE_BLOCKING_MS",
    "PDF_VIEWER_DOCUMENT_VERSION",
    "GEOLOCATION_ACCURACY_EXPONENTIAL",
    "FX_SESSION_RESTORE_READ_FILE_MS",
    "CHANGES_OF_DETECTED_LANGUAGE",
    "OSFILE_WORKER_READY_MS",
    "PDF_VIEWER_FORM",
    "FX_SESSION_RESTORE_AUTO_RESTORE_DURATION_UNTIL_EAGER_TABS_RESTORED_MS",
    "FX_SESSION_RESTORE_COLLECT_DATA_MS",
    "FX_SESSION_RESTORE_FILE_SIZE_BYTES",
    "DATA_STORAGE_ENTRIES",
    "TRANSLATED_PAGES_BY_LANGUAGE",
    "MOZ_SQLITE_OTHER_WRITE_B",
    "LOCALDOMSTORAGE_SHUTDOWN_DATABASE_MS",
    "SSL_CERT_VERIFICATION_ERRORS",
    "FX_SESSION_RESTORE_NUMBER_OF_WINDOWS_RESTORED",
    "MOZ_SQLITE_PLACES_WRITE_MS",
    "FX_THUMBNAILS_BG_CAPTURE_CANVAS_DRAW_TIME_MS",
    "FX_SESSION_RESTORE_STARTUP_INIT_SESSION_MS",
    "FX_SESSION_RESTORE_WRITE_FILE_MS",
    "FX_THUMBNAILS_BG_CAPTURE_PAGE_LOAD_TIME_MS",
    "REQUESTS_OF_ORIGINAL_CONTENT",
    "NEWTAB_PAGE_ENHANCED",
    "CERT_CHAIN_SHA1_POLICY_STATUS",
    "PDF_VIEWER_DOCUMENT_SIZE_KB",
    "FX_THUMBNAILS_BG_CAPTURE_SERVICE_TIME_MS",
    "SHUTDOWN_OK",
    "A11Y_ISIMPLEDOM_USAGE_FLAG",
    "FX_SESSION_RESTORE_MANUAL_RESTORE_DURATION_UNTIL_EAGER_TABS_RESTORED_MS",
    "PDF_VIEWER_DOCUMENT_GENERATOR",
    "PDF_VIEWER_FALLBACK_SHOWN",
    "FX_SESSION_RESTORE_ALL_FILES_CORRUPT",
    "SHOULD_AUTO_DETECT_LANGUAGE",
    "A11Y_IATABLE_USAGE_FLAG",
    "FX_PAGE_LOAD_MS",
    "LOCALDOMSTORAGE_PRELOAD_PENDING_ON_FIRST_ACCESS",
    "DENIED_TRANSLATION_OFFERS",
    "XUL_CACHE_DISABLED",
    "PAGE_FAULTS_HARD",
    "BROWSERPROVIDER_XUL_IMPORT_BOOKMARKS",
    "PDF_VIEWER_USED",
    "GEOLOCATION_WIN8_SOURCE_IS_MLS"
  ],
  "kind": [
    "A11Y_IATABLE_USAGE_FLAG",
    "A11Y_INSTANTIATED_FLAG",
    "A11Y_ISIMPLEDOM_USAGE_FLAG",
    "ADDON_FORBIDDEN_CPOW_USAGE",
    "ADDON_MANAGER_UPGRADE_UI_SHOWN",
    "AUDIO_MFT_OUTPUT_NULL_SAMPLES",
    "AUTO_REJECTED_TRANSLATION_OFFERS",
    "BROWSER_SHIM_USAGE_BLOCKED",
    "CANVAS_WEBGL_ACCL_FAILURE_ID",
    "CANVAS_WEBGL_FAILURE_ID",
    "CHANGES_OF_TARGET_LANGUAGE",
    "CHARSET_OVERRIDE_USED",
    "COMPONENTS_SHIM_ACCESSED_BY_CONTENT",
    "CONTENT_DOCUMENTS_DESTROYED",
    "CREATE_EVENT_BEFOREUNLOADEVENT",
    "CREATE_EVENT_COMPOSITIONEVENT",
    "CREATE_EVENT_CUSTOMEVENT",
    "CREATE_EVENT_DEVICEMOTIONEVENT",
    "CREATE_EVENT_DEVICEORIENTATIONEVENT",
    "CREATE_EVENT_DRAGEVENT",
    "CREATE_EVENT_ERROREVENT",
    "CREATE_EVENT_EVENT",
    "CREATE_EVENT_EVENTS",
    "CREATE_EVENT_HASHCHANGEEVENT",
    "CREATE_EVENT_HTMLEVENTS",
    "CREATE_EVENT_KEYBOARDEVENT",
    "CREATE_EVENT_KEYEVENTS",
    "CREATE_EVENT_MESSAGEEVENT",
    "CREATE_EVENT_MOUSEEVENT",
    "CREATE_EVENT_MOUSEEVENTS",
    "CREATE_EVENT_MOUSESCROLLEVENTS",
    "CREATE_EVENT_MUTATIONEVENT",
    "CREATE_EVENT_MUTATIONEVENTS",
    "CREATE_EVENT_POPSTATEEVENT",
    "CREATE_EVENT_SCROLLAREAEVENT",
    "CREATE_EVENT_STORAGEEVENT",
    "CREATE_EVENT_SVGEVENTS",
    "CREATE_EVENT_TEXTEVENT",
    "CREATE_EVENT_TIMEEVENT",
    "CREATE_EVENT_TOUCHEVENT",
    "CREATE_EVENT_UIEVENT",
    "CREATE_EVENT_UIEVENTS",
    "CREATE_EVENT_XULCOMMANDEVENT",
    "CREATE_EVENT_XULCOMMANDEVENTS",
    "CSP_DOCUMENTS_COUNT",
    "CSP_UNSAFE_EVAL_DOCUMENTS_COUNT",
    "CSP_UNSAFE_INLINE_DOCUMENTS_COUNT",
    "CYCLE_COLLECTOR_OOM",
    "CYCLE_COLLECTOR_WORKER_OOM",
    "D3D11_COMPOSITING_FAILURE_ID",
    "D3D11_SYNC_HANDLE_FAILURE",
    "D3D9_COMPOSITING_FAILURE_ID",
    "DECODER_INSTANTIATED_IBM866",
    "DECODER_INSTANTIATED_ISO2022JP",
    "DECODER_INSTANTIATED_ISO_8859_5",
    "DECODER_INSTANTIATED_KOI8R",
    "DECODER_INSTANTIATED_KOI8U",
    "DECODER_INSTANTIATED_MACARABIC",
    "DECODER_INSTANTIATED_MACCE",
    "DECODER_INSTANTIATED_MACCROATIAN",
    "DECODER_INSTANTIATED_MACCYRILLIC",
    "DECODER_INSTANTIATED_MACDEVANAGARI",
    "DECODER_INSTANTIATED_MACFARSI",
    "DECODER_INSTANTIATED_MACGREEK",
    "DECODER_INSTANTIATED_MACGUJARATI",
    "DECODER_INSTANTIATED_MACGURMUKHI",
    "DECODER_INSTANTIATED_MACHEBREW",
    "DECODER_INSTANTIATED_MACICELANDIC",
    "DECODER_INSTANTIATED_MACROMANIAN",
    "DECODER_INSTANTIATED_MACTURKISH",
    "DEDICATED_WORKER_SPAWN_GETS_QUEUED",
    "DEFECTIVE_PERMISSIONS_SQL_REMOVED",
    "DENIED_TRANSLATION_OFFERS",
    "DEVTOOLS_ABOUTDEBUGGING_OPENED_COUNT",
    "DEVTOOLS_ANIMATIONINSPECTOR_OPENED_COUNT",
    "DEVTOOLS_BROWSERCONSOLE_OPENED_COUNT",
    "DEVTOOLS_CANVASDEBUGGER_OPENED_COUNT",
    "DEVTOOLS_COMPUTEDVIEW_OPENED_COUNT",
    "DEVTOOLS_CUSTOM_OPENED_COUNT",
    "DEVTOOLS_DEVELOPERTOOLBAR_OPENED_COUNT",
    "DEVTOOLS_DOM_OPENED_COUNT",
    "DEVTOOLS_EYEDROPPER_OPENED_COUNT",
    "DEVTOOLS_FONTINSPECTOR_OPENED_COUNT",
    "DEVTOOLS_GCLI_COMMANDS_KEYED",
    "DEVTOOLS_INSPECTOR_OPENED_COUNT",
    "DEVTOOLS_JSBROWSERDEBUGGER_OPENED_COUNT",
    "DEVTOOLS_JSDEBUGGER_OPENED_COUNT",
    "DEVTOOLS_JSPROFILER_OPENED_COUNT",
    "DEVTOOLS_LAYOUTVIEW_OPENED_COUNT",
    "DEVTOOLS_MEMORY_BREAKDOWN_CENSUS_COUNT",
    "DEVTOOLS_MEMORY_BREAKDOWN_DOMINATOR_TREE_COUNT",
    "DEVTOOLS_MEMORY_DOMINATOR_TREE_COUNT",
    "DEVTOOLS_MEMORY_EXPORT_SNAPSHOT_COUNT",
    "DEVTOOLS_MEMORY_IMPORT_SNAPSHOT_COUNT",
    "DEVTOOLS_MEMORY_OPENED_COUNT",
    "DEVTOOLS_MEMORY_TAKE_SNAPSHOT_COUNT",
    "DEVTOOLS_MENU_EYEDROPPER_OPENED_COUNT",
    "DEVTOOLS_NETMONITOR_OPENED_COUNT",
    "DEVTOOLS_OPTIONS_OPENED_COUNT",
    "DEVTOOLS_PAINTFLASHING_OPENED_COUNT",
    "DEVTOOLS_PERFTOOLS_CONSOLE_RECORDING_COUNT",
    "DEVTOOLS_PERFTOOLS_RECORDING_COUNT",
    "DEVTOOLS_PERFTOOLS_RECORDING_EXPORT_FLAG",
    "DEVTOOLS_PERFTOOLS_RECORDING_IMPORT_FLAG",
    "DEVTOOLS_PICKER_EYEDROPPER_OPENED_COUNT",
    "DEVTOOLS_RELOAD_ADDON_INSTALLED_COUNT",
    "DEVTOOLS_RELOAD_ADDON_RELOAD_COUNT",
    "DEVTOOLS_RESPONSIVE_OPENED_COUNT",
    "DEVTOOLS_RULEVIEW_OPENED_COUNT",
    "DEVTOOLS_SCRATCHPAD_OPENED_COUNT",
    "DEVTOOLS_SCRATCHPAD_WINDOW_OPENED_COUNT",
    "DEVTOOLS_SHADEREDITOR_OPENED_COUNT",
    "DEVTOOLS_STORAGE_OPENED_COUNT",
    "DEVTOOLS_STYLEEDITOR_OPENED_COUNT",
    "DEVTOOLS_TILT_OPENED_COUNT",
    "DEVTOOLS_TOOLBOX_OPENED_COUNT",
    "DEVTOOLS_WEBAUDIOEDITOR_OPENED_COUNT",
    "DEVTOOLS_WEBCONSOLE_OPENED_COUNT",
    "DEVTOOLS_WEBIDE_IMPORT_PROJECT_COUNT",
    "DEVTOOLS_WEBIDE_NEW_PROJECT_COUNT",
    "DEVTOOLS_WEBIDE_OPENED_COUNT",
    "DOCUMENT_WITH_EXPANDED_PRINCIPAL",
    "DOM_SCRIPT_SRC_ENCODING",
    "ENABLE_PRIVILEGE_EVER_CALLED",
    "FENNEC_DISTRIBUTION_REFERRER_INVALID",
    "FENNEC_ORBOT_INSTALLED",
    "FENNEC_RESTORING_ACTIVITY",
    "FENNEC_SESSIONSTORE_ALL_FILES_DAMAGED",
    "FENNEC_SESSIONSTORE_DAMAGED_SESSION_FILE",
    "FENNEC_SESSIONSTORE_RESTORING_FROM_BACKUP",
    "FENNEC_SYNC11_MIGRATIONS_COMPLETED",
    "FENNEC_SYNC11_MIGRATIONS_FAILED",
    "FENNEC_SYNC11_MIGRATIONS_SUCCEEDED",
    "FENNEC_SYNC11_MIGRATION_SENTINELS_SEEN",
    "FENNEC_SYNC_NUMBER_OF_SYNCS_COMPLETED",
    "FENNEC_SYNC_NUMBER_OF_SYNCS_FAILED",
    "FENNEC_SYNC_NUMBER_OF_SYNCS_FAILED_BACKOFF",
    "FENNEC_SYNC_NUMBER_OF_SYNCS_STARTED",
    "FENNEC_WAS_KILLED",
    "FILE_EMBEDDED_SERVICEWORKERS",
    "FIPS_ENABLED",
    "FXA_CONFIGURED",
    "FX_BROWSER_FULLSCREEN_USED",
    "FX_CONTENT_CRASH_DUMP_UNAVAILABLE",
    "FX_CONTENT_CRASH_NOT_SUBMITTED",
    "FX_CONTENT_CRASH_PRESENTED",
    "FX_SESSION_RESTORE_SEND_UPDATE_CAUSED_OOM",
    "FX_TOUCH_USED",
    "GEOLOCATION_ERROR",
    "JS_TELEMETRY_ADDON_EXCEPTIONS",
    "MASTER_PASSWORD_ENABLED",
    "MEDIA_CODEC_USED",
    "MEDIA_DECODING_PROCESS_CRASH",
    "NUMBER_OF_PROFILES",
    "ONBEFOREUNLOAD_PROMPT_COUNT",
    "OPENGL_COMPOSITING_FAILURE_ID",
    "PERMISSIONS_SQL_CORRUPTED",
    "PLUGIN_HANG_NOTICE_COUNT",
    "PRINT_COUNT",
    "PRINT_DIALOG_OPENED_COUNT",
    "PRINT_PREVIEW_OPENED_COUNT",
    "PRINT_PREVIEW_SIMPLIFY_PAGE_OPENED_COUNT",
    "PRINT_PREVIEW_SIMPLIFY_PAGE_UNAVAILABLE_COUNT",
    "PROCESS_CRASH_SUBMIT_ATTEMPT",
    "PUSH_API_NOTIFY",
    "PWMGR_MANAGE_COPIED_PASSWORD",
    "PWMGR_MANAGE_COPIED_USERNAME",
    "PWMGR_MANAGE_DELETED",
    "PWMGR_MANAGE_DELETED_ALL",
    "PWMGR_MANAGE_SORTED",
    "REJECTED_MESSAGE_MANAGER_MESSAGE",
    "REQUESTS_OF_ORIGINAL_CONTENT",
    "SANDBOX_REJECTED_SYSCALLS",
    "SEARCH_COUNTS",
    "SEARCH_SERVICE_US_COUNTRY_MISMATCHED_TIMEZONE",
    "SEARCH_SERVICE_US_TIMEZONE_MISMATCHED_COUNTRY",
    "SERVICE_WORKER_CONTROLLED_DOCUMENTS",
    "SERVICE_WORKER_REGISTRATIONS",
    "SERVICE_WORKER_SPAWN_ATTEMPTS",
    "SERVICE_WORKER_SPAWN_GETS_QUEUED",
    "SERVICE_WORKER_UPDATED",
    "SERVICE_WORKER_WAS_SPAWNED",
    "SHARED_WORKER_COUNT",
    "SHARED_WORKER_SPAWN_GETS_QUEUED",
    "SHOULD_AUTO_DETECT_LANGUAGE",
    "SHOULD_TRANSLATION_UI_APPEAR",
    "SLOW_SCRIPT_NOTICE_COUNT",
    "SLOW_SCRIPT_PAGE_COUNT",
    "STARTUP_CRASH_DETECTED",
    "STORAGE_SYNC_REMOVE_OPS",
    "SUBJECT_PRINCIPAL_ACCESSED_WITHOUT_SCRIPT_ON_STACK",
    "SUBPROCESS_ABNORMAL_ABORT",
    "SUBPROCESS_CRASHES_WITH_DUMP",
    "SUBPROCESS_KILL_HARD",
    "SUBPROCESS_LAUNCH_FAILURE",
    "TELEMETRY_ARCHIVE_SESSION_PING_COUNT",
    "TELEMETRY_ASSEMBLE_PAYLOAD_EXCEPTION",
    "TELEMETRY_DISCARDED_CONTENT_PINGS_COUNT",
    "TELEMETRY_INVALID_PAYLOAD_SUBMITTED",
    "TELEMETRY_INVALID_PING_TYPE_SUBMITTED",
    "TELEMETRY_PENDING_LOAD_FAILURE_PARSE",
    "TELEMETRY_PENDING_LOAD_FAILURE_READ",
    "TELEMETRY_PING_EVICTED_FOR_SERVER_ERRORS",
    "TELEMETRY_PING_SIZE_EXCEEDED_ARCHIVED",
    "TELEMETRY_PING_SIZE_EXCEEDED_PENDING",
    "TELEMETRY_PING_SIZE_EXCEEDED_SEND",
    "TELEMETRY_PING_SUBMISSION_WAITING_CLIENTID",
    "TELEMETRY_SCHEDULER_TICK_EXCEPTION",
    "TELEMETRY_SCHEDULER_WAKEUP",
    "TELEMETRY_SESSIONDATA_FAILED_LOAD",
    "TELEMETRY_SESSIONDATA_FAILED_PARSE",
    "TELEMETRY_SESSIONDATA_FAILED_SAVE",
    "TELEMETRY_SESSIONDATA_FAILED_VALIDATION",
    "TELEMETRY_TEST_COUNT",
    "TELEMETRY_TEST_COUNT2",
    "TELEMETRY_TEST_COUNT_INIT_NO_RECORD",
    "TELEMETRY_TEST_EXPIRED",
    "TELEMETRY_TEST_FLAG",
    "TELEMETRY_TEST_FLAG_CONTENT_PROCESS",
    "TELEMETRY_TEST_FLAG_MAIN_PROCESS",
    "TELEMETRY_TEST_KEYED_COUNT",
    "TELEMETRY_TEST_KEYED_COUNT_INIT_NO_RECORD",
    "TELEMETRY_TEST_KEYED_FLAG",
    "TELEMETRY_TEST_KEYED_RELEASE_OPTIN",
    "TELEMETRY_TEST_KEYED_RELEASE_OPTOUT",
    "TELEMETRY_TEST_RELEASE_OPTIN",
    "TELEMETRY_TEST_RELEASE_OPTOUT",
    "TOP_LEVEL_CONTENT_DOCUMENTS_DESTROYED",
    "TOTAL_CONTAINERS_OPENED",
    "TOTAL_SCROLL_Y",
    "TRANSLATED_PAGES",
    "TRANSLATED_PAGES_BY_LANGUAGE",
    "UNIQUE_CONTAINERS_OPENED",
    "UPDATE_CANNOT_STAGE_EXTERNAL",
    "UPDATE_CANNOT_STAGE_NOTIFY",
    "UPDATE_CHECK_EXTENDED_ERROR_EXTERNAL",
    "UPDATE_CHECK_EXTENDED_ERROR_NOTIFY",
    "UPDATE_CHECK_NO_UPDATE_EXTERNAL",
    "UPDATE_CHECK_NO_UPDATE_NOTIFY",
    "UPDATE_INVALID_LASTUPDATETIME_EXTERNAL",
    "UPDATE_INVALID_LASTUPDATETIME_NOTIFY",
    "UPDATE_NOT_PREF_UPDATE_AUTO_EXTERNAL",
    "UPDATE_NOT_PREF_UPDATE_AUTO_NOTIFY",
    "UPDATE_NOT_PREF_UPDATE_ENABLED_EXTERNAL",
    "UPDATE_NOT_PREF_UPDATE_ENABLED_NOTIFY",
    "UPDATE_NOT_PREF_UPDATE_SERVICE_ENABLED_EXTERNAL",
    "UPDATE_NOT_PREF_UPDATE_SERVICE_ENABLED_NOTIFY",
    "UPDATE_NOT_PREF_UPDATE_STAGING_ENABLED_EXTERNAL",
    "UPDATE_NOT_PREF_UPDATE_STAGING_ENABLED_NOTIFY",
    "UPDATE_PING_COUNT_EXTERNAL",
    "UPDATE_PING_COUNT_NOTIFY",
    "UPDATE_SERVICE_MANUALLY_UNINSTALLED_EXTERNAL",
    "UPDATE_SERVICE_MANUALLY_UNINSTALLED_NOTIFY",
    "UPDATE_UNABLE_TO_APPLY_EXTERNAL",
    "UPDATE_UNABLE_TO_APPLY_NOTIFY",
    "VIDEO_FASTSEEK_USED",
    "WEAVE_ENGINE_SYNC_ERRORS",
    "WEBFONT_PER_PAGE",
    "WEBRTC_CALL_COUNT_2",
    "WEBVTT_USED_VTT_CUES",
    "XUL_CACHE_DISABLED"
  ]
}
